firmware/GBCR2_SEU_Test20220722/.Xil/Vivado-3264-SC-202012291841/hw_ila_data_1/zip_work/waveform.vcd
$date
        2022-Apr-19 10:38:12
$end
$version
        Vivado v2020.2 (64-bit)
$end
$timescale
        1ps
$end
$scope module dut $end
$var reg 256 " Data_Checker_Inst/Data_generator_160M/Tx_PRBS7_Data_Checker_inst/dataOut [255:0] $end
$var reg 1 f# _TRIGGER $end
$var reg 1 g# _WINDOW $end
$var reg 1 h# _GAP $end
$upscope $end
$enddefinitions $end
#0
$dumpvars
b100000000000000000000011100100001010000010000000111100000000000001100010011011010110111101100011010000100110110101101111011000110100000000000000000000000000000000000000000000000000000000000000000000000000000000000000000011100001011010001010110100011111111 "
0f#
1g#
0h#
$end
#1
b100000000000000000000011100100001010000010000001000000000000000001101011101110011001010101111111000010111011100110010101011111110000000000000000000000000000000000000000000000000000000000000000000000000000000000000000000011110000010011100100110000010010000 "
#2
b100000000000000000000011100100001010000010000001000100000000000001100010000011000010100011110010001000100000110000101000111100100010000000000000000000000000000000000000000000000000000000000000000000000000000000000000000011100111001100000011110111100100011 "
#3
b100000000000000000000011100100001010000010000001001000000000000001101100111010100111110100001110001011001110101001111101000011100010000000000000000000000000000000000000000000000000000000000000000000000000000000000000000011100100111110010111111110011111001 "
#4
b100000000000000000000011100100001010000010000001001100000000000001100100110110101101111011000110100101001101101011011110110001101001000000000000000000000000000000000000000000000000000000000000000000000000000000000000000011110001111111110101010100000010110 "
#5
b100000000000000000000011100100001010000010000001010000000000000001100111011100110010101011111110000001110111001100101010111111100000000000000000000000000000000000000000000000000000000000000000000000000000000000000000000011101111011101100110001000010010000 "
#6
b100000000000000000000011100100001010000010000001010100000000000001100100000110000101000111100100010101000001100001010001111001000101000000000000000000000000000000000000000000000000000000000000000000000000000000000000000011110100100000000110111000111101010 "
#7
b100000000000000000000011100100001010000010000001011000000000000001101001110101001111101000011100010010011101010011111010000111000100000000000000000000000000000000000000000000000000000000000000000000000000000000000000000011100010000111101001100110110011100 "
#8
b100000000000000000000011100100001010000010000001011100000000000001101001101101011011110110001101001010011011010110111101100011010010000000000000000000000000000000000000000000000000000000000000000000000000000000000000000011111100101000110111000001000101000 "
#9
b100000000000000000000011100100001010000010000001100000000000000001101110111001100101010111111100000011101110011001010101111111000000000000000000000000000000000000000000000000000000000000000000000000000000000000000000000011101111001010000000011111100110110 "
#10
b100000000000000000000011100100001010000010000001100100000000000001101000001100001010001111001000101110000011000010100011110010001011000000000000000000000000000000000000000000000000000000000000000000000000000000000000000011101011111001000010000101011101100 "
#11
b100000000000000000000011100100001010000010000001101000000000000001100011101010011111010000111000100100111010100111110100001110001001000000000000000000000000000000000000000000000000000000000000000000000000000000000000000011110110111101101100110110000000011 "
#12
b100000000000000000000011100100001010000010000001101100000000000001100011011010110111101100011010010100110110101101111011000110100101000000000000000000000000000000000000000000000000000000000000000000000000000000000000000011111001000101100111001110000110011 "
#13
b100000000000000000000011100100001010000010000001110000000000000001101101110011001010101111111000000111011100110010101011111110000001000000000000000000000000000000000000000000000000000000000000000000000000000000000000000011100010111000110111100101110111001 "
#14
b100000000000000000000011100100001010000010000001110100000000000001100000011000010100011110010001011000000110000101000111100100010110000000000000000000000000000000000000000000000000000000000000000000000000000000000000000011111000110000110010100101010010100 "
#15
b100000000000000000000011100100001010000010000001111000000000000001100111010100111110100001110001001001110101001111101000011100010010000000000000000000000000000000000000000000000000000000000000000000000000000000000000000011110010110010011111001100101001001 "
#16
b100000000000000000000011100100001010000010000001111100000000000001100110110101101111011000110100101101101101011011110110001101001011000000000000000000000000000000000000000000000000000000000000000000000000000000000000000011111110101100001001001001110110000 "
#17
b100000000000000000000011100100001010000010000010000000000000000001101011100110010101011111110000001010111001100101010111111100000010000000000000000000000000000000000000000000000000000000000000000000000000000000000000000011100100001111111100011111100001101 "
#18
b100000000000000000000011100100001010000010000010000100000000000001100000110000101000111100100010110000001100001010001111001000101100000000000000000000000000000000000000000000000000000000000000000000000000000000000000000011100100110011101101101101100111101 "
#19
b100000000000000000000011100100001010000010000010001000000000000001101110101001111101000011100010010011101010011111010000111000100100000000000000000000000000000000000000000000000000000000000000000000000000000000000000000011100110010001101001111011000000001 "
#20
b100000000000000000000011100100001010000010000010001100000000000001101101101011011110110001101001011111011010110111101100011010010111000000000000000000000000000000000000000000000000000000000000000000000000000000000000000011101101000011000100000100101101010 "
#21
b100000000000000000000011100100001010000010000010010000000000000001100111001100101010111111100000010001110011001010101111111000000100000000000000000000000000000000000000000000000000000000000000000000000000000000000000000011101011101110110011101000100011100 "
#22
b100000000000000000000011100100001010000010000010010100000000000001100001100001010001111001000101100100011000010100011110010001011001000000000000000000000000000000000000000000000000000000000000000000000000000000000000000011111111110010111100111101011010111 "
#23
b100000000000000000000011100100001010000010000010011000000000000001101101010011111010000111000100100111010100111110100001110001001001000000000000000000000000000000000000000000000000000000000000000000000000000000000000000011101010011011000110010001100011011 "
#24
b100000000000000000000011100100001010000010000010011100000000000001101011010110111101100011010010111010110101101111011000110100101110000000000000000000000000000000000000000000000000000000000000000000000000000000000000000011101111010000011100011011101010100 "
#25
b100000000000000000000011100100001010000010000010100000000000000001101110011001010101111111000000100011100110010101011111110000001000000000000000000000000000000000000000000000000000000000000000000000000000000000000000000011101010000001001101101111100101111 "
#26
b100000000000000000000011100100001010000010000010100100000000000001100011000010100011110010001011001100110000101000111100100010110011000000000000000000000000000000000000000000000000000000000000000000000000000000000000000011110001110001010000111111110010111 "
#27
b100000000000000000000011100100001010000010000010101000000000000001101010100111110100001110001001001110101001111101000011100010010011000000000000000000000000000000000000000000000000000000000000000000000000000000000000000011101010101001010101101001000001100 "
#28
b100000000000000000000011100100001010000010000010101100000000000001100110101101111011000110100101110101101011011110110001101001011101000000000000000000000000000000000000000000000000000000000000000000000000000000000000000011110010111111010101000100001111101 "
#29
b100000000000000000000011100100001010000010000010110000000000000001101100110010101011111110000001000011001100101010111111100000010000000000000000000000000000000000000000000000000000000000000000000000000000000000000000000011100101101101111111111000011111100 "
#30
b100000000000000000000011100100001010000010000010110100000000000001100110000101000111100100010110011101100001010001111001000101100111000000000000000000000000000000000000000000000000000000000000000000000000000000000000000011100111001111101011100111110010000 "
#31
b100000000000000000000011100100001010000010000010111000000000000001100101001111101000011100010010011001010011111010000111000100100110000000000000000000000000000000000000000000000000000000000000000000000000000000000000000011100000011010100100001001011010011 "
#32
b100000000000000000000011100100001010000010000010111100000000000001101101011011110110001101001011101111010110111101100011010010111011000000000000000000000000000000000000000000000000000000000000000000000000000000000000000011100101110100001011101100000101101 "
#33
b100000000000000000000011100100001010000010000011000000000000000001101001100101010111111100000010000010011001010101111111000000100000000000000000000000000000000000000000000000000000000000000000000000000000000000000000000011100001100101100011011111000101100 "
#34
b100000000000000000000011100100001010000010000011000100000000000001101100001010001111001000101100111011000010100011110010001011001110000000000000000000000000000000000000000000000000000000000000000000000000000000000000000011110000101011010010011101100101001 "
#35
b100000000000000000000011100100001010000010000011001000000000000001101010011111010000111000100100110110100111110100001110001001001101000000000000000000000000000000000000000000000000000000000000000000000000000000000000000011101001001000100111001001101011111 "
#36
b100000000000000000000011100100001010000010000011001100000000000001101010110111101100011010010111011110101101111011000110100101110111000000000000000000000000000000000000000000000000000000000000000000000000000000000000000011110110011111100001111110101111110 "
#37
b100000000000000000000011100100001010000010000011010000000000000001100011001010101111111000000100000100110010101011111110000001000001000000000000000000000000000000000000000000000000000000000000000000000000000000000000000011100101001111100101001010111010111 "
#38
b100000000000000000000011100100001010000010000011010100000000000001101000010100011110010001011001110110000101000111100100010110011101000000000000000000000000000000000000000000000000000000000000000000000000000000000000000011110101110100110001111000010000101 "
#39
b100000000000000000000011100100001010000010000011011000000000000001100100111110100001110001001001101101001111101000011100010010011011000000000000000000000000000000000000000000000000000000000000000000000000000000000000000011110000110010000110011011101011000 "
#40
b100000000000000000000011100100001010000010000011011100000000000001100101101111011000110100101110111001011011110110001101001011101110000000000000000000000000000000000000000000000000000000000000000000000000000000000000000011111101010100001000001110000110100 "
#41
b100000000000000000000011100100001010000010000011100000000000000001100110010101011111110000001000001101100101010111111100000010000011000000000000000000000000000000000000000000000000000000000000000000000000000000000000000011110010110110001000001000000110000 "
#42
b100000000000000000000011100100001010000010000011100100000000000001100000101000111100100010110011101000001010001111001000101100111010000000000000000000000000000000000000000000000000000000000000000000000000000000000000000011100110000010001111010010010001000 "
#43
b100000000000000000000011100100001010000010000011101000000000000001101001111101000011100010010011011010011111010000111000100100110110000000000000000000000000000000000000000000000000000000000000000000000000000000000000000011111100100010010010010100010000110 "
#44
b100000000000000000000011100100001010000010000011101100000000000001101011011110110001101001011101110010110111101100011010010111011100000000000000000000000000000000000000000000000000000000000000000000000000000000000000000011110101101110111010000110010110001 "
#45
b100000000000000000000011100100001010000010000011110000000000000001101100101010111111100000010000011011001010101111111000000100000110000000000000000000000000000000000000000000000000000000000000000000000000000000000000000011110110110100000110010010010111000 "
#46
b100000000000000000000011100100001010000010000011110100000000000001100001010001111001000101100111010100010100011110010001011001110101000000000000000000000000000000000000000000000000000000000000000000000000000000000000000011101100010100001011011101011100110 "
#47
b100000000000000000000011100100001010000010000011111000000000000001100011111010000111000100100110110100111110100001110001001001101101000000000000000000000000000000000000000000000000000000000000000000000000000000000000000011101001011111000001011110011111001 "
#48
b100000000000000000000011100100001010000010000011111100000000000001100110111101100011010010111011100101101111011000110100101110111001000000000000000000000000000000000000000000000000000000000000000000000000000000000000000011101001000110100101000011001111000 "
#49
b100000000000000000000011100100001010000010000100000000000000000001101001010101111111000000100000110010010101011111110000001000001100000000000000000000000000000000000000000000000000000000000000000000000000000000000000000011101011011101110100110100000010010 "
#50
b100000000000000000000011100100001010000010000100000100000000000001100010100011110010001011001110101000101000111100100010110011101010000000000000000000000000000000000000000000000000000000000000000000000000000000000000000011101010110001110101011001011000100 "
#51
b100000000000000000000011100100001010000010000100001000000000000001100111110100001110001001001101101001111101000011100010010011011010000000000000000000000000000000000000000000000000000000000000000000000000000000000000000011110110000000111110011010001111100 "
#52
b100000000000000000000011100100001010000010000100001100000000000001101101111011000110100101110111001111011110110001101001011101110011000000000000000000000000000000000000000000000000000000000000000000000000000000000000000011100101011101110111010101111100111 "
#53
b100000000000000000000011100100001010000010000100010000000000000001100010101011111110000001000001100000101010111111100000010000011000000000000000000000000000000000000000000000000000000000000000000000000000000000000000000011101100010001101111011100100100000 "
#54
b100000000000000000000011100100001010000010000100010100000000000001100101000111100100010110011101010001010001111001000101100111010100000000000000000000000000000000000000000000000000000000000000000000000000000000000000000011111011000011110101111011101010001 "
#55
b100000000000000000000011100100001010000010000100011000000000000001101111101000011100010010011011010111111010000111000100100110110101000000000000000000000000000000000000000000000000000000000000000000000000000000000000000011110101001110001011111010101100110 "
#56
b100000000000000000000011100100001010000010000100011100000000000001101011110110001101001011101110011010111101100011010010111011100110000000000000000000000000000000000000000000000000000000000000000000000000000000000000000011100110110110110111011010001001100 "
#57
b100000000000000000000011100100001010000010000100100000000000000001100101010111111100000010000011000001010101111111000000100000110000000000000000000000000000000000000000000000000000000000000000000000000000000000000000000011111100100100111001100100101010101 "
#58
b100000000000000000000011100100001010000010000100100100000000000001101010001111001000101100111010100110100011110010001011001110101001000000000000000000000000000000000000000000000000000000000000000000000000000000000000000011100001001000001111010001010011001 "
#59
b100000000000000000000011100100001010000010000100101000000000000001101111010000111000100100110110101111110100001110001001001101101011000000000000000000000000000000000000000000000000000000000000000000000000000000000000000011101101111110000001010010101000011 "
#60
b100000000000000000000011100100001010000010000100101100000000000001100111101100011010010111011100110001111011000110100101110111001100000000000000000000000000000000000000000000000000000000000000000000000000000000000000000011111001000111111011101000000111001 "
#61
b100000000000000000000011100100001010000010000100110000000000000001101010101111111000000100000110000110101011111110000001000001100001000000000000000000000000000000000000000000000000000000000000000000000000000000000000000011110110111111000000001011011111001 "
#62
b100000000000000000000011100100001010000010000100110100000000000001100100011110010001011001110101001101000111100100010110011101010011000000000000000000000000000000000000000000000000000000000000000000000000000000000000000011111001001010110110010011100001011 "
#63
b100000000000000000000011100100001010000010000100111000000000000001101110100001110001001001101101011011101000011100010010011011010110000000000000000000000000000000000000000000000000000000000000000000000000000000000000000011110111101111000000011101001001111 "
#64
b100000000000000000000011100100001010000010000100111100000000000001101111011000110100101110111001100111110110001101001011101110011001000000000000000000000000000000000000000000000000000000000000000000000000000000000000000011101011011110011011010111010100111 "
#65
b100000000000000000000011100100001010000010000101000000000000000001100101011111110000001000001100001001010111111100000010000011000010000000000000000000000000000000000000000000000000000000000000000000000000000000000000000011111110111101010011010100110010011 "
#66
b100000000000000000000011100100001010000010000101000100000000000001101000111100100010110011101010011110001111001000101100111010100111000000000000000000000000000000000000000000000000000000000000000000000000000000000000000011110100110010010011010100111011100 "
#67
b100000000000000000000011100100001010000010000101001000000000000001101101000011100010010011011010110111010000111000100100110110101101000000000000000000000000000000000000000000000000000000000000000000000000000000000000000011111001010100001101001000011100000 "
#68
b100000000000000000000011100100001010000010000101001100000000000001101110110001101001011101110011001011101100011010010111011100110010000000000000000000000000000000000000000000000000000000000000000000000000000000000000000011110011111110111000100111000011110 "
#69
b100000000000000000000011100100001010000010000101010000000000000001101010111111100000010000011000010110101111111000000100000110000101000000000000000000000000000000000000000000000000000000000000000000000000000000000000000011100100001001100111110100000101110 "
#70
b100000000000000000000011100100001010000010000101010100000000000001100001111001000101100111010100111100011110010001011001110101001111000000000000000000000000000000000000000000000000000000000000000000000000000000000000000011100100011101111110001001101101101 "
#71
b100000000000000000000011100100001010000010000101011000000000000001101010000111000100100110110101101110100001110001001001101101011011000000000000000000000000000000000000000000000000000000000000000000000000000000000000000011101001110110011101110101110010011 "
#72
b100000000000000000000011100100001010000010000101011100000000000001101101100011010010111011100110010111011000110100101110111001100101000000000000000000000000000000000000000000000000000000000000000000000000000000000000000011101110100011000010010010010000000 "
#73
b100000000000000000000011100100001010000010000101100000000000000001100101111111000000100000110000101001011111110000001000001100001010000000000000000000000000000000000000000000000000000000000000000000000000000000000000000011101110000101011000011110010000100 "
#74
b100000000000000000000011100100001010000010000101100100000000000001100011110010001011001110101001111100111100100010110011101010011111000000000000000000000000000000000000000000000000000000000000000000000000000000000000000011111011001001000111010100110101001 "
#75
b100000000000000000000011100100001010000010000101101000000000000001100100001110001001001101101011011101000011100010010011011010110111000000000000000000000000000000000000000000000000000000000000000000000000000000000000000011110000110011110010101101111100001 "
#76
b100000000000000000000011100100001010000010000101101100000000000001101011000110100101110111001100101010110001101001011101110011001010000000000000000000000000000000000000000000000000000000000000000000000000000000000000000011101101110111001100010111101011110 "
#77
b100000000000000000000011100100001010000010000101110000000000000001101011111110000001000001100001010010111111100000010000011000010100000000000000000000000000000000000000000000000000000000000000000000000000000000000000000011110110101111101001010011001100101 "
#78
b100000000000000000000011100100001010000010000101110100000000000001100111100100010110011101010011111001111001000101100111010100111110000000000000000000000000000000000000000000000000000000000000000000000000000000000000000011101110010001100001110001101100111 "
#79
b100000000000000000000011100100001010000010000101111000000000000001101000011100010010011011010110111110000111000100100110110101101111000000000000000000000000000000000000000000000000000000000000000000000000000000000000000011101110101101100000001010100000111 "
#80
b100000000000000000000011100100001010000010000101111100000000000001100110001101001011101110011001010101100011010010111011100110010101000000000000000000000000000000000000000000000000000000000000000000000000000000000000000011100000001000000110001101000010011 "
#81
b100000000000000000000011100100001010000010000110000000000000000001100111111100000010000011000010100001111111000000100000110000101000000000000000000000000000000000000000000000000000000000000000000000000000000000000000000011111101101010110101000001011111110 "
#82
b100000000000000000000011100100001010000010000110000100000000000001101111001000101100111010100111110111110010001011001110101001111101000000000000000000000000000000000000000000000000000000000000000000000000000000000000000011111001010100001010111011011100110 "
#83
b100000000000000000000011100100001010000010000110001000000000000001100000111000100100110110101101111000001110001001001101101011011110000000000000000000000000000000000000000000000000000000000000000000000000000000000000000011101001101111001110000000111100100 "
#84
b100000000000000000000011100100001010000010000110001100000000000001101100011010010111011100110010101011000110100101110111001100101010000000000000000000000000000000000000000000000000000000000000000000000000000000000000000011100000101110011011110010000010001 "
#85
b100000000000000000000011100100001010000010000110010000000000000001101111111000000100000110000101000111111110000001000001100001010001000000000000000000000000000000000000000000000000000000000000000000000000000000000000000011101110001011001101101110111110101 "
#86
b100000000000000000000011100100001010000010000110010100000000000001101110010001011001110101001111101011100100010110011101010011111010000000000000000000000000000000000000000000000000000000000000000000000000000000000000000011110010010010011110101011001101110 "
#87
b100000000000000000000011100100001010000010000110011000000000000001100001110001001001101101011011110100011100010010011011010110111101000000000000000000000000000000000000000000000000000000000000000000000000000000000000000011100010000001010010011111000011111 "
#88
b100000000000000000000011100100001010000010000110011100000000000001101000110100101110111001100101010110001101001011101110011001010101000000000000000000000000000000000000000000000000000000000000000000000000000000000000000011100100001001100000000111000101000 "
#89
b100000000000000000000011100100001010000010000110100000000000000001101111110000001000001100001010001111111100000010000011000010100011000000000000000000000000000000000000000000000000000000000000000000000000000000000000000011110111000011011111010110001000101 "
#90
b100000000000000000000011100100001010000010000110100100000000000001101100100010110011101010011111010011001000101100111010100111110100000000000000000000000000000000000000000000000000000000000000000000000000000000000000000011111100111001111010100110001011101 "
#91
b100000000000000000000011100100001010000010000110101000000000000001100011100010010011011010110111101100111000100100110110101101111011000000000000000000000000000000000000000000000000000000000000000000000000000000000000000011101101111010100110001101011001010 "
#92
b100000000000000000000011100100001010000010000110101100000000000001100001101001011101110011001010101100011010010111011100110010101011000000000000000000000000000000000000000000000000000000000000000000000000000000000000000011110101100001011011000000101111001 "
#93
b100000000000000000000011100100001010000010000110110000000000000001101111100000010000011000010100011111111000000100000110000101000111000000000000000000000000000000000000000000000000000000000000000000000000000000000000000011101111001100011011110100000010101 "
#94
b100000000000000000000011100100001010000010000110110100000000000001101001000101100111010100111110100010010001011001110101001111101000000000000000000000000000000000000000000000000000000000000000000000000000000000000000000011101011010111010001100001010111100 "
#95
b100000000000000000000011100100001010000010000110111000000000000001100111000100100110110101101111011001110001001001101101011011110110000000000000000000000000000000000000000000000000000000000000000000000000000000000000000011111001011010011000111000110010001 "
#96
b100000000000000000000011100100001010000010000110111100000000000001100011010010111011100110010101011100110100101110111001100101010111000000000000000000000000000000000000000000000000000000000000000000000000000000000000000011111010100101100001011000111011001 "
#97
b100000000000000000000011100100001010000010000111000000000000000001101111000000100000110000101000111111110000001000001100001010001111000000000000000000000000000000000000000000000000000000000000000000000000000000000000000011100100100101101000110110001110100 "
#98
b100000000000000000000011100100001010000010000111000100000000000001100010001011001110101001111101000000100010110011101010011111010000000000000000000000000000000000000000000000000000000000000000000000000000000000000000000011111111111101111101101001110111111 "
#99
b100000000000000000000011100100001010000010000111001000000000000001101110001001001101101011011110110011100010010011011010110111101100000000000000000000000000000000000000000000000000000000000000000000000000000000000000000011101011101100011111010101111100110 "
#100
b100000000000000000000011100100001010000010000111001100000000000001100110100101110111001100101010111101101001011101110011001010101111000000000000000000000000000000000000000000000000000000000000000000000000000000000000000011111111111101101101100000111101111 "
#101
b100000000000000000000011100100001010000010000111010000000000000001101110000001000001100001010001111011100000010000011000010100011110000000000000000000000000000000000000000000000000000000000000000000000000000000000000000011111111001100110001101001011101101 "
#102
b100000000000000000000011100100001010000010000111010100000000000001100100010110011101010011111010000101000101100111010100111110100001000000000000000000000000000000000000000000000000000000000000000000000000000000000000000011111100111110110101101001101100111 "
#103
b100000000000000000000011100100001010000010000111011000000000000001101100010010011011010110111101100011000100100110110101101111011000000000000000000000000000000000000000000000000000000000000000000000000000000000000000000011100101111000110101010010110100000 "
#104
b100000000000000000000011100100001010000010000111011100000000000001101101001011101110011001010101111111010010111011100110010101011111000000000000000000000000000000000000000000000000000000000000000000000000000000000000000011111000011001111110000111110101110 "
#105
b100000000000000000000011100100001010000010000111100000000000000001101100000010000011000010100011110011000000100000110000101000111100000000000000000000000000000000000000000000000000000000000000000000000000000000000000000011110000011111001101110100101001011 "
#106
b100000000000000000000011100100001010000010000111100100000000000001101000101100111010100111110100001110001011001110101001111101000011000000000000000000000000000000000000000000000000000000000000000000000000000000000000000011100010011111101001000100111110100 "
#107
b100000000000000000000011100100001010000010000111101000000000000001101000100100110110101101111011000110001001001101101011011110110001000000000000000000000000000000000000000000000000000000000000000000000000000000000000000011100000011000011000111101001111001 "
#108
b100000000000000000000011100100001010000010000111101100000000000001101010010111011100110010101011111110100101110111001100101010111111000000000000000000000000000000000000000000000000000000000000000000000000000000000000000011101001111100111000100000100111101 "
#109
b100000000000000000000011100100001010000010000111110000000000000001101000000100000110000101000111100110000001000001100001010001111001000000000000000000000000000000000000000000000000000000000000000000000000000000000000000011100101101111100011011110011110110 "
#110
b100000000000000000000011100100001010000010000111110100000000000001100001011001110101001111101000011100010110011101010011111010000111000000000000000000000000000000000000000000000000000000000000000000000000000000000000000011110011001000011100001001011010000 "
#111
b100000000000000000000011100100001010000010000111111000000000000001100001001001101101011011110110001100010010011011010110111101100011000000000000000000000000000000000000000000000000000000000000000000000000000000000000000011100001100000100000111111101001100 "
#112
b100000000000000000000011100100001010000010000111111100000000000001100100101110111001100101010111111101001011101110011001010101111111000000000000000000000000000000000000000000000000000000000000000000000000000000000000000011100000101001010100111101100101011 "
#113
b100000000000000000000011100100001010000010001000000000000000000001100000001000001100001010001111001000000010000011000010100011110010000000000000000000000000000000000000000000000000000000000000000000000000000000000000000011100010010111101110110110001101101 "
#114
b100000000000000000000011100100001010000010001000000100000000000001100010110011101010011111010000111000101100111010100111110100001110000000000000000000000000000000000000000000000000000000000000000000000000000000000000000011111011110100001011101011001001011 "
#115
b100000000000000000000011100100001010000010001000001000000000000001100010010011011010110111101100011000100100110110101101111011000110000000000000000000000000000000000000000000000000000000000000000000000000000000000000000011101000100100101111001101001000010 "
#116
b100000000000000000000011100100001010000010001000001100000000000001101001011101110011001010101111111010010111011100110010101011111110000000000000000000000000000000000000000000000000000000000000000000000000000000000000000011111000110111110011110000001100011 "
#117
b100000000000000000000011100100001010000010001000010000000000000001100000010000011000010100011110010000000100000110000101000111100100000000000000000000000000000000000000000000000000000000000000000000000000000000000000000011101010011111101111010100101011111 "
#118
b100000000000000000000011100100001010000010001000010100000000000001100101100111010100111110100001110001011001110101001111101000011100000000000000000000000000000000000000000000000000000000000000000000000000000000000000000011101011111110010011011001001001011 "
#119
b100000000000000000000011100100001010000010001000011000000000000001100100100110110101101111011000110101001001101101011011110110001101000000000000000000000000000000000000000000000000000000000000000000000000000000000000000011111010110000110010010010100011110 "
#120
b100000000000000000000011100100001010000010001000011100000000000001100010111011100110010101011111110000101110111001100101010111111100000000000000000000000000000000000000000000000000000000000000000000000000000000000000000011101111010100100101010111101000000 "
#121
b100000000000000000000011100100001010000010001000100000000000000001100000100000110000101000111100100000001000001100001010001111001000000000000000000000000000000000000000000000000000000000000000000000000000000000000000000011100010101000100000111100000011000 "
#122
b100000000000000000000011100100001010000010001000100100000000000001101011001110101001111101000011100010110011101010011111010000111000000000000000000000000000000000000000000000000000000000000000000000000000000000000000000011110011101011101100011110011011111 "
#123
b100000000000000000000011100100001010000010001000101000000000000001101001001101101011011110110001101010010011011010110111101100011010000000000000000000000000000000000000000000000000000000000000000000000000000000000000000011100111110111110011000010101000100 "
#124
b100000000000000000000011100100001010000010001000101100000000000001100101110111001100101010111111100001011101110011001010101111111000000000000000000000000000000000000000000000000000000000000000000000000000000000000000000011111110011001101011111111010100000 "
#125
b100000000000000000000011100100001010000010001000110000000000000001100001000001100001010001111001000100010000011000010100011110010001000000000000000000000000000000000000000000000000000000000000000000000000000000000000000011111000010001101001111100001100111 "
#126
b100000000000000000000011100100001010000010001000110100000000000001100110011101010011111010000111000101100111010100111110100001110001000000000000000000000000000000000000000000000000000000000000000000000000000000000000000011101110111011101011001011110000011 "
#127
b100000000000000000000011100100001010000010001000111000000000000001100010011011010110111101100011010000100110110101101111011000110100000000000000000000000000000000000000000000000000000000000000000000000000000000000000000011110001101100111101110101111110010 "
#128
b100000000000000000000011100100001010000010001000111100000000000001101011101110011001010101111111000010111011100110010101011111110000000000000000000000000000000000000000000000000000000000000000000000000000000000000000000011110110011100010111111101001010000 "
#129
b100000000000000000000011100100001010000010001001000000000000000001100010000011000010100011110010001000100000110000101000111100100010000000000000000000000000000000000000000000000000000000000000000000000000000000000000000011110111111010110100110110000101110 "
#130
b100000000000000000000011100100001010000010001001000100000000000001101100111010100111110100001110001011001110101001111101000011100010000000000000000000000000000000000000000000000000000000000000000000000000000000000000000011101000001000000111101110010111110 "
#131
b100000000000000000000011100100001010000010001001001000000000000001100100110110101101111011000110100101001101101011011110110001101001000000000000000000000000000000000000000000000000000000000000000000000000000000000000000011100001001001000010010101100011011 "
#132
b100000000000000000000011100100001010000010001001001100000000000001100111011100110010101011111110000001110111001100101010111111100000000000000000000000000000000000000000000000000000000000000000000000000000000000000000000011111011001100111010110101111110100 "
#133
b100000000000000000000011100100001010000010001001010000000000000001100100000110000101000111100100010101000001100001010001111001000101000000000000000000000000000000000000000000000000000000000000000000000000000000000000000011100100010110110001111001011100111 "
#134
b100000000000000000000011100100001010000010001001010100000000000001101001110101001111101000011100010010011101010011111010000111000100000000000000000000000000000000000000000000000000000000000000000000000000000000000000000011101110110001111001110110111011011 "
#135
b100000000000000000000011100100001010000010001001011000000000000001101001101101011011110110001101001010011011010110111101100011010010000000000000000000000000000000000000000000000000000000000000000000000000000000000000000011101100011110000000000000100100101 "
#136
b100000000000000000000011100100001010000010001001011100000000000001101110111001100101010111111100000011101110011001010101111111000000000000000000000000000000000000000000000000000000000000000000000000000000000000000000000011101010110011000111110111110100011 "
#137
b100000000000000000000011100100001010000010001001100000000000000001101000001100001010001111001000101110000011000010100011110010001011000000000000000000000000000000000000000000000000000000000000000000000000000000000000000011111011001111110101000100111100001 "
#138
b100000000000000000000011100100001010000010001001100100000000000001100011101010011111010000111000100100111010100111110100001110001001000000000000000000000000000000000000000000000000000000000000000000000000000000000000000011111010001011111100100110001000100 "
#139
b100000000000000000000011100100001010000010001001101000000000000001100011011010110111101100011010010100110110101101111011000110100101000000000000000000000000000000000000000000000000000000000000000000000000000000000000000011101001110011010000001111100111110 "
#140
b100000000000000000000011100100001010000010001001101100000000000001101101110011001010101111111000000111011100110010101011111110000001000000000000000000000000000000000000000000000000000000000000000000000000000000000000000011110110101001101011011000011011101 "
#141
b100000000000000000000011100100001010000010001001110000000000000001100000011000010100011110010001011000000110000101000111100100010110000000000000000000000000000000000000000000000000000000000000000000000000000000000000000011101000000110000101100100110011001 "
#142
b100000000000000000000011100100001010000010001001110100000000000001100111010100111110100001110001001001110101001111101000011100010010000000000000000000000000000000000000000000000000000000000000000000000000000000000000000011111110000100001111011100100001110 "
#143
b100000000000000000000011100100001010000010001001111000000000000001100110110101101111011000110100101101101101011011110110001101001011000000000000000000000000000000000000000000000000000000000000000000000000000000000000000011101110011010111110001000010111101 "
#144
b100000000000000000000011100100001010000010001001111100000000000001101011100110010101011111110000001010111001100101010111111100000010000000000000000000000000000000000000000000000000000000000000000000000000000000000000000011100101101101100110011000101100111 "
#145
b100000000000000000000011100100001010000010001010000000000000000001100000110000101000111100100010110000001100001010001111001000101100000000000000000000000000000000000000000000000000000000000000000000000000000000000000000011110100000101011010101100000110000 "
#146
b100000000000000000000011100100001010000010001010000100000000000001101110101001111101000011100010010011101010011111010000111000100100000000000000000000000000000000000000000000000000000000000000000000000000000000000000000011101010100111111001101011001000110 "
#147
b100000000000000000000011100100001010000010001010001000000000000001101101101011011110110001101001011111011010110111101100011010010111000000000000000000000000000000000000000000000000000000000000000000000000000000000000000011111101110101110011000101001100111 "
#148
b100000000000000000000011100100001010000010001010001100000000000001100111001100101010111111100000010001110011001010101111111000000100000000000000000000000000000000000000000000000000000000000000000000000000000000000000000011111111111111101111010101001111000 "
#149
b100000000000000000000011100100001010000010001010010000000000000001100001100001010001111001000101100100011000010100011110010001011001000000000000000000000000000000000000000000000000000000000000000000000000000000000000000011101111000100001011111100111011010 "
#150
b100000000000000000000011100100001010000010001010010100000000000001101101010011111010000111000100100111010100111110100001110001001001000000000000000000000000000000000000000000000000000000000000000000000000000000000000000011100110101101010110000001101011100 "
#151
b100000000000000000000011100100001010000010001010011000000000000001101011010110111101100011010010111010110101101111011000110100101110000000000000000000000000000000000000000000000000000000000000000000000000000000000000000011111111100110101011011010001011001 "
#152
b100000000000000000000011100100001010000010001010011100000000000001101110011001010101111111000000100011100110010101011111110000001000000000000000000000000000000000000000000000000000000000000000000000000000000000000000000011101111111000001010000111110111010 "
#153
b100000000000000000000011100100001010000010001010100000000000000001100011000010100011110010001011001100110000101000111100100010110011000000000000000000000000000000000000000000000000000000000000000000000000000000000000000011100001000111100111111110010011010 "
#154
b100000000000000000000011100100001010000010001010100100000000000001101010100111110100001110001001001110101001111101000011100010010011000000000000000000000000000000000000000000000000000000000000000000000000000000000000000011100110011111000101111001001001011 "
#155
b100000000000000000000011100100001010000010001010101000000000000001100110101101111011000110100101110101101011011110110001101001011101000000000000000000000000000000000000000000000000000000000000000000000000000000000000000011100010001001100010000101101110000 "
#156
b100000000000000000000011100100001010000010001010101100000000000001101100110010101011111110000001000011001100101010111111100000010000000000000000000000000000000000000000000000000000000000000000000000000000000000000000000011110001111100100011000101110011000 "
#157
b100000000000000000000011100100001010000010001010110000000000000001100110000101000111100100010110011101100001010001111001000101100111000000000000000000000000000000000000000000000000000000000000000000000000000000000000000011110111111001011100100110010011101 "
#158
b100000000000000000000011100100001010000010001010110100000000000001100101001111101000011100010010011001010011111010000111000100100110000000000000000000000000000000000000000000000000000000000000000000000000000000000000000011101100101100110100011001010010100 "
