firmware/GBCR2_SEU_Test20220722/.Xil/Vivado-1756-13-02625/hw_ila_data_1/zip_work/waveform.vcd
$date
        2020-Nov-14 17:01:54
$end
$version
        Vivado v2018.3 (64-bit)
$end
$timescale
        1ps
$end
$scope module dut $end
$var reg 64 " Rx0_Error_bit_Count [63:0] $end
$var reg 32 b gt0_rxdata_i [31:0] $end
$var reg 64 $" Rx1_Error_bit_Count [63:0] $end
$var reg 32 d" gt1_rxdata_i [31:0] $end
$var reg 64 &# Rx2_Error_bit_Count [63:0] $end
$var reg 32 f# gt2_rxdata_i [31:0] $end
$var reg 64 ($ Rx3_Error_bit_Count [63:0] $end
$var reg 32 h$ gt3_rxdata_i [31:0] $end
$var reg 64 *% Rx4_Error_bit_Count [63:0] $end
$var reg 32 j% gt4_rxdata_i [31:0] $end
$var reg 64 ,& Rx5_Error_bit_Count [63:0] $end
$var reg 32 l& gt5_rxdata_i [31:0] $end
$var reg 64 .' Rx6_Error_bit_Count [63:0] $end
$var reg 32 n' gt6_rxdata_i [31:0] $end
$var reg 1 0( _TRIGGER $end
$var reg 1 1( _WINDOW $end
$var reg 1 2( _GAP $end
$upscope $end
$enddefinitions $end
#0
$dumpvars
b10001 "
b1100011010101110011011000111011 b
b10001 $"
b10001101010111001101100011101110 d"
b10000 &#
b11010101110011011000111011101100 f#
b10000 ($
b1101010111001101100011101110110 h$
b10000 *%
b11010101110011011000111011101100 j%
b10000 ,&
b11010101110011011000111011101100 l&
b100111000111100001111001010000110011 .'
b1010101010101010101010101010101 n'
00(
11(
02(
$end
#1
b11010111100111101110100001111110 b
b1011110011110111010000111111001 d"
b11100111101110100001111110011000 f#
b11110011110111010000111111001100 h$
b11100111101110100001111110011000 j%
b11100111101110100001111110011000 l&
b100111000111100001111001010001000011 .'
#2
b11100110101101101001101010111000 b
b10011010110110100110101011100011 d"
b10101101101001101010111000110101 f#
b11010110110100110101011100011010 h$
b10101101101001101010111000110101 j%
b10101101101001101010111000110101 l&
b100111000111100001111001010001010011 .'
#3
b10001101001100000010010011110111 b
b110100110000001001001111011111 d"
b1001100000010010011110111111001 f#
b10100110000001001001111011111100 h$
b1001100000010010011110111111001 j%
b1001100000010010011110111111001 l&
b100111000111100001111001010001100011 .'
#4
b1110010010110001000000110100 b
b111001001011000100000011010010 d"
b10010010110001000000110100100011 f#
b11001001011000100000011010010001 h$
b10010010110001000000110100100011 j%
b10010010110001000000110100100011 l&
b100111000111100001111001010001110011 .'
#5
b10111110000010011100100011001 b
b1011111000001001110010001100100 d"
b11110000010011100100011001000011 f#
b11111000001001110010001100100001 h$
b11110000010011100100011001000011 j%
b11110000010011100100011001000011 l&
b100111000111100001111001010010000011 .'
#6
b1011010100111001000111100011101 b
b1101010011100100011110001110100 d"
b10100111001000111100011101000101 f#
b1010011100100011110001110100010 h$
b10100111001000111100011101000101 j%
b10100111001000111100011101000101 l&
b100111000111100001111001010010010011 .'
#7
b1011000111001111000111101111111 b
b1100011100111100011110111111101 d"
b111001111000111101111111010110 f#
b11100111100011110111111101011 h$
b111001111000111101111111010110 j%
b111001111000111101111111010110 l&
b100111000111100001111001010010100011 .'
#8
b10101001111111011011111101001000 b
b10100111111101101111110100100001 d"
b1111111011011111101001000010110 f#
b111111101101111110100100001011 h$
b1111111011011111101001000010110 j%
b1111111011011111101001000010110 l&
b100111000111100001111001010010110011 .'
#9
b1011110011000010000010001010000 b
b1111001100001000001000101000010 d"
b10011000010000010001010000101010 f#
b11001100001000001000101000010101 h$
b10011000010000010001010000101010 j%
b10011000010000010001010000101010 l&
b100111000111100001111001010011000011 .'
#10
b1111010110101101001001001101101 b
b11101011010110100100100110110101 d"
b10110101101001001001101101010111 f#
b1011010110100100100110110101011 h$
b10110101101001001001101101010111 j%
b10110101101001001001101101010111 l&
b100111000111100001111001010011010011 .'
#11
b111010110001100010000000010000 b
b11101011000110001000000001000001 d"
b10110001100010000000010000011110 f#
b1011000110001000000001000001111 h$
b10110001100010000000010000011110 j%
b10110001100010000000010000011110 l&
b100111000111100001111001010011100011 .'
#12
b1110110011110111001000001001 b
b111011001111011100100000100100 d"
b10110011110111001000001001001110 f#
b11011001111011100100000100100111 h$
b10110011110111001000001001001110 j%
b10110011110111001000001001001110 l&
b100111000111100001111001010011110011 .'
#13
b1000111100010110100111000100100 b
b11110001011010011100010010000 d"
b11100010110100111000100100000011 f#
b11110001011010011100010010000001 h$
b11100010110100111000100100000011 j%
b11100010110100111000100100000011 l&
b100111000111100001111001010100000011 .'
#14
b100111101111010001001111110000 b
b10011110111101000100111111000001 d"
b11101111010001001111110000010001 f#
b11110111101000100111111000001000 h$
b11101111010001001111110000010001 j%
b11101111010001001111110000010001 l&
b100111000111100001111001010100010011 .'
#15
b11100001101001010101100011000111 b
b10000110100101010110001100011100 d"
b1101001010101100011000111001001 f#
b110100101010110001100011100100 h$
b1101001010101100011000111001001 j%
b1101001010101100011000111001001 l&
b100111000111100001111001010100100011 .'
#16
b1110110010001111100111101111 b
b111011001000111110011110111111 d"
b10110010001111100111101111111000 f#
b11011001000111110011110111111100 h$
b10110010001111100111101111111000 j%
b10110010001111100111101111111000 l&
b100111000111100001111001010100110011 .'
#17
b10111100010001111001101101001 b
b1011110001000111100110110100100 d"
b11100010001111001101101001000011 f#
b11110001000111100110110100100001 h$
b11100010001111001101101001000011 j%
b11100010001111001101101001000011 l&
b100111000111100001111001010101000011 .'
#18
b101010101111001111011010000010 b
b10101010111100111101101000001000 d"
b10101111001111011010000010000101 f#
b1010111100111101101000001000010 h$
b10101111001111011010000010000101 j%
b10101111001111011010000010000101 l&
b100111000111100001111001010101010011 .'
#19
b111111101011011010000101001 b
b11111110101101101000010100100 d"
b11111101011011010000101001001010 f#
b11111110101101101000010100100101 h$
b11111101011011010000101001001010 j%
b11111101011011010000101001001010 l&
b100111000111100001111001010101100011 .'
#20
b1100011100001011000000101010110 b
b10001110000101100000010101011000 d"
b11100001011000000101010110000001 f#
b1110000101100000010101011000000 h$
b11100001011000000101010110000001 j%
b11100001011000000101010110000001 l&
b100111000111100001111001010101110011 .'
#21
b11010111111110101001100010111110 b
b1011111111010100110001011111001 d"
b11111110101001100010111110011000 f#
b11111111010100110001011111001100 h$
b11111110101001100010111110011000 j%
b11111110101001100010111110011000 l&
b100111000111100001111001010110000011 .'
#22
b100110100000101110010111010100 b
b10011010000010111001011101010011 d"
b10100000101110010111010100110101 f#
b11010000010111001011101010011010 h$
b10100000101110010111010100110101 j%
b10100000101110010111010100110101 l&
b100111000111100001111001010110010011 .'
#23
b11100001001010010101110010110111 b
b10000100101001010111001011011100 d"
b1001010010101110010110111001001 f#
b100101001010111001011011100100 h$
b1001010010101110010110111001001 j%
b1001010010101110010110111001001 l&
b100111000111100001111001010110100011 .'
#24
b1111110100001100011101110010000 b
b11111010000110001110111001000011 d"
b10100001100011101110010000111000 f#
b11010000110001110111001000011100 h$
b10100001100011101110010000111000 j%
b10100001100011101110010000111000 l&
b100111000111100001111001010110110011 .'
#25
b10101000101010110111111001110001 b
b10100010101011011111100111000101 d"
b101010110111111001110001011111 f#
b10101011011111100111000101111 h$
b101010110111111001110001011111 j%
b101010110111111001110001011111 l&
b100111000111100001111001010111000011 .'
#26
b101110110111110000100011011111 b
b10111011011111000010001101111110 d"
b10110111110000100011011111101010 f#
b11011011111000010001101111110101 h$
b10110111110000100011011111101010 j%
b10110111110000100011011111101010 l&
b100111000111100001111001010111010011 .'
#27
b110101100000100111010011100010 b
b11010110000010011101001110001000 d"
b1100000100111010011100010001011 f#
b10110000010011101001110001000101 h$
b1100000100111010011100010001011 j%
b1100000100111010011100010001011 l&
b100111000111100001111001010111100011 .'
#28
b1101001100110010001110100111111 b
b10100110011001000111010011111100 d"
b1100110010001110100111111001101 f#
b110011001000111010011111100110 h$
b1100110010001110100111111001101 j%
b1100110010001110100111111001101 l&
b100111000111100001111001010111110011 .'
#29
b11110010010101010001111101001100 b
b11001001010101000111110100110001 d"
b10010101010001111101001100011010 f#
b1001010101000111110100110001101 h$
b10010101010001111101001100011010 j%
b10010101010001111101001100011010 l&
b100111000111100001111001011000000011 .'
#30
b1010110000011111101111001010010 b
b1011000001111110111100101001011 d"
b10000011111101111001010010111100 f#
b11000001111110111100101001011110 h$
b10000011111101111001010010111100 j%
b10000011111101111001010010111100 l&
b100111000111100001111001011000010011 .'
#31
b11101110011001110001001011001100 b
b10111001100111000100101100110001 d"
b10011001110001001011001100010101 f#
b11001100111000100101100110001010 h$
b10011001110001001011001100010101 j%
b10011001110001001011001100010101 l&
b100111000111100001111001011000100011 .'
#32
b11011001110101011111100001001010 b
b1100111010101111110000100101011 d"
b1110101011111100001001010111011 f#
b111010101111110000100101011101 h$
b1110101011111100001001010111011 j%
b1110101011111100001001010111011 l&
b100111000111100001111001011000110011 .'
#33
b11110001011101111010001110100001 b
b11000101110111101000111010000111 d"
b1011101111010001110100001110110 f#
b101110111101000111010000111011 h$
b1011101111010001110100001110110 j%
b1011101111010001110100001110110 l&
b100111000111100001111001011001000011 .'
#34
b11010111101011001010101111101010 b
b1011110101100101010111110101011 d"
b11101011001010101111101010111100 f#
b11110101100101010111110101011110 h$
b11101011001010101111101010111100 j%
b11101011001010101111101010111100 l&
b100111000111100001111001011001010011 .'
#35
b1010110101011001001111101001011 b
b1011010101100100111110100101111 d"
b10101011001001111101001011110101 f#
b11010101100100111110100101111010 h$
b10101011001001111101001011110101 j%
b10101011001001111101001011110101 l&
b100111000111100001111001011001100011 .'
#36
b10111110001111001000011001010001 b
b11111000111100100001100101000101 d"
b10001111001000011001010001010101 f#
b11000111100100001100101000101010 h$
b10001111001000011001010001010101 j%
b10001111001000011001010001010101 l&
b100111000111100001111001011001110011 .'
#37
b100111111011000101101001101 b
b10011111101100010110100110110 d"
b111111011000101101001101101111 f#
b10011111101100010110100110110111 h$
b111111011000101101001101101111 j%
b111111011000101101001101101111 l&
b100111000111100001111001011010000011 .'
#38
b100010001100010001110100010010 b
b10001000110001000111010001001000 d"
b10001100010001110100010010000001 f#
b1000110001000111010001001000000 h$
b10001100010001110100010010000001 j%
b10001100010001110100010010000001 l&
b100111000111100001111001011010010011 .'
#39
b10010011001110111001111101011000 b
b1001100111011100111110101100000 d"
b11001110111001111101011000001000 f#
b1100111011100111110101100000100 h$
b11001110111001111101011000001000 j%
b11001110111001111101011000001000 l&
b100111000111100001111001011010100011 .'
#40
b1010000101011100111011001011001 b
b1000010101110011101100101100110 d"
b101011100111011001011001100100 f#
b10101110011101100101100110010 h$
b101011100111011001011001100100 j%
b101011100111011001011001100100 l&
b100111000111100001111001011010110011 .'
#41
b111101010111011101110001001001 b
b11110101011101110111000100100101 d"
b1010111011101110001001001010100 f#
b10101011101110111000100100101010 h$
b1010111011101110001001001010100 j%
b1010111011101110001001001010100 l&
b100111000111100001111001011011000011 .'
#42
b11101011110110011001111100000 b
b1110101111011001100111110000000 d"
b1011110110011001111100000001111 f#
b10101111011001100111110000000111 h$
b1011110110011001111100000001111 j%
b1011110110011001111100000001111 l&
b100111000111100001111001011011010011 .'
#43
b11101111011010100010101011001110 b
b10111101101010001010101100111000 d"
b11011010100010101011001110000111 f#
b11101101010001010101100111000011 h$
b11011010100010101011001110000111 j%
b11011010100010101011001110000111 l&
b100111000111100001111001011011100011 .'
#44
b1001001010000111011011111001011 b
b100101000011101101111100101111 d"
b1010000111011011111001011111011 f#
b101000011101101111100101111101 h$
b1010000111011011111001011111011 j%
b1010000111011011111001011111011 l&
b100111000111100001111001011011110011 .'
#45
b110000001101011110000010011001 b
b11000000110101111000001001100101 d"
b1101011110000010011001010010 f#
b110101111000001001100101001 h$
b1101011110000010011001010010 j%
b1101011110000010011001010010 l&
b100111000111100001111001011100000011 .'
#46
b11001011000110011010111001000101 b
b101100011001101011100100010100 d"
b11000110011010111001000101001100 f#
b1100011001101011100100010100110 h$
b11000110011010111001000101001100 j%
b11000110011010111001000101001100 l&
b100111000111100001111001011100010011 .'
#47
b1001001111010100110111000110 b
b100100111101010011011100011011 d"
b1001111010100110111000110110010 f#
b100111101010011011100011011001 h$
b1001111010100110111000110110010 j%
b1001111010100110111000110110010 l&
b100111000111100001111001011100100011 .'
#48
b1110100000011010111001000111111 b
b11010000001101011100100011111100 d"
b11010111001000111111000010 f#
b10000001101011100100011111100001 h$
b11010111001000111111000010 j%
b11010111001000111111000010 l&
b100111000111100001111001011100110011 .'
#49
b11111101010001100110111000111100 b
b11110101000110011011100011110001 d"
b1010001100110111000111100011101 f#
b10101000110011011100011110001110 h$
b1010001100110111000111100011101 j%
b1010001100110111000111100011101 l&
b100111000111100001111001011101000011 .'
#50
b100001011101110101000111111101 b
b10000101110111010100011111110111 d"
b1011101110101000111111101111111 f#
b101110111010100011111110111111 h$
b1011101110101000111111101111111 j%
b1011101110101000111111101111111 l&
b100111000111100001111001011101010011 .'
#51
b10000010101011001101110111100001 b
b1010101100110111011110000100 d"
b10101011001101110111100001001000 f#
b1010101100110111011110000100100 h$
b10101011001101110111100001001000 j%
b10101011001101110111100001001000 l&
b100111000111100001111001011101100011 .'
#52
b10101001011111001010001100101110 b
b10100101111100101000110010111010 d"
b1011111001010001100101110100000 f#
b101111100101000110010111010000 h$
b1011111001010001100101110100000 j%
b1011111001010001100101110100000 l&
b100111000111100001111001011101110011 .'
#53
b10001110001010011001101110100101 b
b111000101001100110111010010110 d"
b10001010011001101110100101101010 f#
b11000101001100110111010010110101 h$
b10001010011001101110100101101010 j%
b10001010011001101110100101101010 l&
b100111000111100001111001011110000011 .'
#54
b11001111111101100101010001101000 b
b111111110110010101000110100010 d"
b11111101100101010001101000100011 f#
b11111110110010101000110100010001 h$
b11111101100101010001101000100011 j%
b11111101100101010001101000100011 l&
b100111000111100001111001011110010011 .'
#55
b1001011000001000100111101110010 b
b101100000100010011110111001011 d"
b11000001000100111101110010110011 f#
b1100000100010011110111001011001 h$
b11000001000100111101110010110011 j%
b11000001000100111101110010110011 l&
b100111000111100001111001011110100011 .'
#56
b11000001001100100110001101001110 b
b100110010011000110100111001 d"
b1001100100110001101001110010010 f#
b100110010011000110100111001001 h$
b1001100100110001101001110010010 j%
b1001100100110001101001110010010 l&
b100111000111100001111001011110110011 .'
#57
b11011100100010100001011110010011 b
b1110010001010000101111001001111 d"
b100010100001011110010011110000 f#
b10010001010000101111001001111000 h$
b100010100001011110010011110000 j%
b100010100001011110010011110000 l&
b100111000111100001111001011111000011 .'
#58
b1100011100011011010101010110000 b
b10001110001101101010101011000011 d"
b11100011011010101010110000110111 f#
b1110001101101010101011000011011 h$
b11100011011010101010110000110111 j%
b11100011011010101010110000110111 l&
b100111000111100001111001011111010011 .'
#59
b10000111111111100000111111110011 b
b11111111110000011111111001101 d"
b11111111100000111111110011011000 f#
b11111111110000011111111001101100 h$
b11111111100000111111110011011000 j%
b11111111100000111111110011011000 l&
b100111000111100001111001011111100011 .'
#60
b101011100000001110011100000110 b
b10101110000000111001110000011010 d"
b11100000001110011100000110100001 f#
b1110000000111001110000011010000 h$
b11100000001110011100000110100001 j%
b11100000001110011100000110100001 l&
b100111000111100001111001011111110011 .'
#61
b10100111011110000111110111110011 b
b10011101111000011111011111001100 d"
b11011110000111110111110011001010 f#
b11101111000011111011111001100101 h$
b11011110000111110111110011001010 j%
b11011110000111110111110011001010 l&
b100111000111100001111001100000000011 .'
#62
b111001110010111011100100100110 b
b11100111001011101110010010011010 d"
b1110010111011100100100110101001 f#
b111001011101110010010011010100 h$
b1110010111011100100100110101001 j%
b1110010111011100100100110101001 l&
b100111000111100001111001100000010011 .'
#63
b10001111011110010110011100000001 b
b111101111001011001110000000100 d"
b11011110010110011100000001001110 f#
b11101111001011001110000000100111 h$
b11011110010110011100000001001110 j%
b11011110010110011100000001001110 l&
b100111000111100001111001100000100011 .'
#64
b1001111010010110010010111110000 b
b111101001011001001011111000010 d"
b11010010110010010111110000100011 f#
b11101001011001001011111000010001 h$
b11010010110010010111110000100011 j%
b11010010110010010111110000100011 l&
b100111000111100001111001100000110011 .'
#65
b11010011010100010010000010100111 b
b1001101010001001000001010011101 d"
b11010100010010000010100111010011 f#
b1101010001001000001010011101001 h$
b11010100010010000010100111010011 j%
b11010100010010000010100111010011 l&
b100111000111100001111001100001000011 .'
#66
b1110100100111011000001001011001 b
b11010010011101100000100101100111 d"
b100111011000001001011001110100 f#
b10010011101100000100101100111010 h$
b100111011000001001011001110100 j%
b100111011000001001011001110100 l&
b100111000111100001111001100001010011 .'
#67
b101101000001110001100100001001 b
b10110100000111000110010000100101 d"
b1000001110001100100001001011101 f#
b10100000111000110010000100101110 h$
b1000001110001100100001001011101 j%
b1000001110001100100001001011101 l&
b100111000111100001111001100001100011 .'
#68
b1010100010100111111110100010100 b
b1010001010011111111010001010000 d"
b10100111111110100010100001011 f#
b10001010011111111010001010000101 h$
b10100111111110100010100001011 j%
b10100111111110100010100001011 l&
b100111000111100001111001100001110011 .'
#69
b11111011011001100000101011011 b
b1111101101100110000010101101101 d"
b11011011001100000101011011010101 f#
b11101101100110000010101101101010 h$
b11011011001100000101011011010101 j%
b11011011001100000101011011010101 l&
b100111000111100001111001100010000011 .'
#70
b10001110010000001010110010111000 b
b111001000000101011001011100000 d"
b10010000001010110010111000000111 f#
b11001000000101011001011100000011 h$
b10010000001010110010111000000111 j%
b10010000001010110010111000000111 l&
b100111000111100001111001100010010011 .'
#71
b10111111110001000101110010010111 b
b11111111000100010111001001011110 d"
b11110001000101110010010111100011 f#
b11111000100010111001001011110001 h$
b11110001000101110010010111100011 j%
b11110001000101110010010111100011 l&
b100111000111100001111001100010100011 .'
#72
b1110100000111100110101110000010 b
b11010000011110011010111000001010 d"
b111100110101110000010101111 f#
b10000011110011010111000001010111 h$
b111100110101110000010101111 j%
b111100110101110000010101111 l&
b100111000111100001111001100010110011 .'
#73
b101101010011101101001101111001 b
b10110101001110110100110111100101 d"
b1010011101101001101111001011101 f#
b10101001110110100110111100101110 h$
b1010011101101001101111001011101 j%
b1010011101101001101111001011101 l&
b100111000111100001111001100011000011 .'
#74
b100100011100111000010010001011 b
b10010001110011100001001000101100 d"
b11100111000010010001011001011 f#
b10001110011100001001000101100101 h$
b11100111000010010001011001011 j%
b11100111000010010001011001011 l&
b100111000111100001111001100011010011 .'
#75
b1000000011111101111101000001101 b
b1111110111110100000110100 d"
b11111101111101000001101001001 f#
b1111110111110100000110100100 h$
b11111101111101000001101001001 j%
b11111101111101000001101001001 l&
b100111000111100001111001100011100011 .'
#76
b1000100001110001001001010100110 b
b10000111000100100101010011001 d"
b1110001001001010100110010000 f#
b10000111000100100101010011001000 h$
b1110001001001010100110010000 j%
b1110001001001010100110010000 l&
b100111000111100001111001100011110011 .'
#77
b110110010111111100000001111001 b
b11011001011111110000000111100101 d"
b10010111111100000001111001010001 f#
b11001011111110000000111100101000 h$
b10010111111100000001111001010001 j%
b10010111111100000001111001010001 l&
b100111000111100001111001100100000011 .'
#78
b101000010010100001110000111011 b
b10100001001010000111000011101100 d"
b10010100001110000111011001101 f#
b1001010000111000011101100110 h$
b10010100001110000111011001101 j%
b10010100001110000111011001101 l&
b100111000111100001111001100100010011 .'
#79
b11110110101000011010111111011110 b
b11011010100001101011111101111000 d"
b10101000011010111111011110001010 f#
b11010100001101011111101111000101 h$
b10101000011010111111011110001010 j%
b10101000011010111111011110001010 l&
b100111000111100001111001100100100011 .'
#80
b1010100001110101100110100010010 b
b1010000111010110011010001001011 d"
b1110101100110100010010111101 f#
b10000111010110011010001001011110 h$
b1110101100110100010010111101 j%
b1110101100110100010010111101 l&
b100111000111100001111001100100110011 .'
#81
b10101111010111101100101001011000 b
b10111101011110110010100101100001 d"
b11010111101100101001011000010101 f#
b11101011110110010100101100001010 h$
b11010111101100101001011000010101 j%
b11010111101100101001011000010101 l&
b100111000111100001111001100101000011 .'
#82
b1001101010110101000100110001001 b
b110101011010100010011000100110 d"
b1010110101000100110001001101011 f#
b10101011010100010011000100110101 h$
b1010110101000100110001001101011 j%
b1010110101000100110001001101011 l&
b100111000111100001111001100101010011 .'
#83
b11100010011110001110110001011100 b
b10001001111000111011000101110001 d"
b10011110001110110001011100010011 f#
b1001111000111011000101110001001 h$
b10011110001110110001011100010011 j%
b10011110001110110001011100010011 l&
b100111000111100001111001100101100011 .'
#84
b1001111000110111111100011101011 b
b111100011011111110001110101111 d"
b11000110111111100011101011111000 f#
b11100011011111110001110101111100 h$
b11000110111111100011101011111000 j%
b11000110111111100011101011111000 l&
b100111000111100001111001100101110011 .'
#85
b10011011111000100001111111011 b
b1001101111100010000111111101101 d"
b11011111000100001111111011010011 f#
b1101111100010000111111101101001 h$
b11011111000100001111111011010011 j%
b11011111000100001111111011010011 l&
b100111000111100001111001100110000011 .'
#86
b101000100010011110010111000010 b
b10100010001001111001011100001000 d"
b100010011110010111000010000100 f#
b10001001111001011100001000010 h$
b100010011110010111000010000100 j%
b100010011110010111000010000100 l&
b100111000111100001111001100110010011 .'
#87
b1000110110011000110110010111101 b
b11011001100011011001011110100 d"
b10110011000110110010111101001010 f#
b11011001100011011001011110100101 h$
b10110011000110110010111101001010 j%
b10110011000110110010111101001010 l&
b100111000111100001111001100110100011 .'
#88
b11110111000010101111000010010101 b
b11011100001010111100001001010101 d"
b11000010101111000010010101010001 f#
b11100001010111100001001010101000 h$
b11000010101111000010010101010001 j%
b11000010101111000010010101010001 l&
b100111000111100001111001100110110011 .'
#89
b11000100111101011101011101000011 b
b10011110101110101110100001111 d"
b111101011101011101000011111101 f#
b10011110101110101110100001111110 h$
b111101011101011101000011111101 j%
b111101011101011101000011111101 l&
b100111000111100001111001100111000011 .'
#90
b10111110001101011011011011010101 b
b11111000110101101101101101010111 d"
b10001101011011011011010101110001 f#
b11000110101101101101101010111000 h$
b10001101011011011011010101110001 j%
b10001101011011011011010101110001 l&
b100111000111100001111001100111010011 .'
#91
b10100100111110011000000000000111 b
b10010011111001100000000000011110 d"
b111110011000000000000111101111 f#
b10011111001100000000000011110111 h$
b111110011000000000000111101111 j%
b111110011000000000000111101111 l&
b100111000111100001111001100111100011 .'
#92
b11101000001100110101100000000011 b
b10100000110011010110000000001110 d"
b1100110101100000000011101001 f#
b110011010110000000001110100 h$
b1100110101100000000011101001 j%
b1100110101100000000011101001 l&
b100111000111100001111001100111110011 .'
#93
b11101010100110101001100110000001 b
b10101010011010100110011000000111 d"
b10100110101001100110000001111010 f#
b1010011010100110011000000111101 h$
b10100110101001100110000001111010 j%
b10100110101001100110000001111010 l&
b100111000111100001111001101000000011 .'
#94
b11111011111001001110010101011000 b
b11101111100100111001010101100011 d"
b11111001001110010101011000111010 f#
b1111100100111001010101100011101 h$
b11111001001110010101011000111010 j%
b11111001001110010101011000111010 l&
b100111000111100001111001101000010011 .'
#95
b1100010010011000011110011111001 b
b10001001001100001111001111100111 d"
b10010011000011110011111001111110 f#
b1001001100001111001111100111111 h$
b10010011000011110011111001111110 j%
b10010011000011110011111001111110 l&
b100111000111100001111001101000100011 .'
#96
b10000111000000101101110110110011 b
b11100000010110111011011001101 d"
b11000000101101110110110011011000 f#
b11100000010110111011011001101100 h$
b11000000101101110110110011011000 j%
b11000000101101110110110011011000 l&
b100111000111100001111001101000110011 .'
#97
b1101011111100010100001100000010 b
b10101111110001010000110000001010 d"
b11111100010100001100000010100001 f#
b1111110001010000110000001010000 h$
b11111100010100001100000010100001 j%
b11111100010100001100000010100001 l&
b100111000111100001111001101001000011 .'
#98
b10100011010001111011010110110001 b
b10001101000111101101011011000101 d"
b11010001111011010110110001011010 f#
b1101000111101101011011000101101 h$
b11010001111011010110110001011010 j%
b11010001111011010110110001011010 l&
b100111000111100001111001101001010011 .'
#99
b11101011100101111010000110000011 b
b10101110010111101000011000001110 d"
b11100101111010000110000011101000 f#
b1110010111101000011000001110100 h$
b11100101111010000110000011101000 j%
b11100101111010000110000011101000 l&
b100111000111100001111001101001100011 .'
#100
b1101011011100101010101011011001 b
b10101101110010101010101101100111 d"
b11011100101010101011011001111010 f#
b1101110010101010101101100111101 h$
b11011100101010101011011001111010 j%
b11011100101010101011011001111010 l&
b100111000111100001111001101001110011 .'
#101
b10100011000011100111111111000001 b
b10001100001110011111111100000101 d"
b11000011100111111111000001011010 f#
b1100001110011111111100000101101 h$
b11000011100111111111000001011010 j%
b11000011100111111111000001011010 l&
b100111000111100001111001101010000011 .'
#102
b10011011101101111101100000011100 b
b1101110110111110110000001110010 d"
b11101101111101100000011100101000 f#
b1110110111110110000001110010100 h$
b11101101111101100000011100101000 j%
b11101101111101100000011100101000 l&
b100111000111100001111001101010010011 .'
#103
b110100011000001001000110001111 b
b11010001100000100100011000111110 d"
b11000001001000110001111100110 f#
b10001100000100100011000111110011 h$
b11000001001000110001111100110 j%
b11000001001000110001111100110 l&
b100111000111100001111001101010100011 .'
#104
b1101001011101100100000111011111 b
b10100101110110010000011101111100 d"
b1011101100100000111011111001101 f#
b101110110010000011101111100110 h$
b1011101100100000111011111001101 j%
b1011101100100000111011111001101 l&
b100111000111100001111001101010110011 .'
#105
b10010001011000100010011110010 b
b1001000101100010001001111001001 d"
b10001011000100010011110010011010 f#
b1000101100010001001111001001101 h$
b10001011000100010011110010011010 j%
b10001011000100010011110010011010 l&
b100111000111100001111001101011000011 .'
#106
b1101000001101001110011000110110 b
b10100000110100111001100011011000 d"
b1101001110011000110110000100 f#
b110100111001100011011000010 h$
b1101001110011000110110000100 j%
b1101001110011000110110000100 l&
b100111000111100001111001101011010011 .'
#107
b10110010100110010011110101111000 b
b11001010011001001111010111100001 d"
b10100110010011110101111000011010 f#
b1010011001001111010111100001101 h$
b10100110010011110101111000011010 j%
b10100110010011110101111000011010 l&
b100111000111100001111001101011100011 .'
#108
b1100010011001010000110101101011 b
b10001001100101000011010110101110 d"
b10011001010000110101101011101100 f#
b1001100101000011010110101110110 h$
b10011001010000110101101011101100 j%
b10011001010000110101101011101100 l&
b100111000111100001111001101011110011 .'
#109
b10000111000101001101011001100011 b
b11100010100110101100110001101 d"
b11000101001101011001100011011000 f#
b11100010100110101100110001101100 h$
b11000101001101011001100011011000 j%
b11000101001101011001100011011000 l&
b100111000111100001111001101100000011 .'
#110
b10111011111110110010011001010111 b
b11101111111011001001100101011110 d"
b11111110110010011001010111100001 f#
b1111111011001001100101011110000 h$
b11111110110010011001010111100001 j%
b11111110110010011001010111100001 l&
b100111000111100001111001101100010011 .'
#111
b10110110010000100010000101001110 b
b11011001000010001000010100111010 d"
b10010000100010000101001110101110 f#
b11001000010001000010100111010111 h$
b10010000100010000101001110101110 j%
b10010000100010000101001110101110 l&
b100111000111100001111001101100100011 .'
#112
b11100000010001010011001010110011 b
b10000001000101001100101011001110 d"
b10001010011001010110011101101 f#
b1000101001100101011001110110 h$
b10001010011001010110011101101 j%
b10001010011001010110011101101 l&
b100111000111100001111001101100110011 .'
#113
b1011110001001101100101001110010 b
b1111000100110110010100111001011 d"
b10001001101100101001110010111000 f#
b11000100110110010100111001011100 h$
b10001001101100101001110010111000 j%
b10001001101100101001110010111000 l&
b100111000111100001111001101101000011 .'
#114
b11001010111100010000100110011110 b
b101011110001000010011001111001 d"
b10111100010000100110011110010111 f#
b1011110001000010011001111001011 h$
b10111100010000100110011110010111 j%
b10111100010000100110011110010111 l&
b100111000111100001111001101101010011 .'
#115
b1001110101111001010001010110 b
b100111010111100101000101011011 d"
b1110101111001010001010110110010 f#
b111010111100101000101011011001 h$
b1110101111001010001010110110010 j%
b1110101111001010001010110110010 l&
b100111000111100001111001101101100011 .'
#116
b11100100011101101011001101101110 b
b10010001110110101100110110111000 d"
b11101101011001101101110000010 f#
b10001110110101100110110111000001 h$
b11101101011001101101110000010 j%
b11101101011001101101110000010 l&
b100111000111100001111001101101110011 .'
#117
b11101100011111000011001010000001 b
b10110001111100001100101000000111 d"
b11111000011001010000001111001 f#
b10001111100001100101000000111100 h$
b11111000011001010000001111001 j%
b11111000011001010000001111001 l&
b100111000111100001111001101110000011 .'
#118
b11111000111110011101101001101000 b
b11100011111001110110100110100011 d"
b111110011101101001101000111011 f#
b11111001110110100110100011101 h$
b111110011101101001101000111011 j%
b111110011101101001101000111011 l&
b100111000111100001111001101110010011 .'
#119
b1010011111100110111000010010010 b
b1001111110011011100001001001011 d"
b11111100110111000010010010111110 f#
b1111110011011100001001001011111 h$
b11111100110111000010010010111110 j%
b11111100110111000010010010111110 l&
b100111000111100001111001101110100011 .'
#120
b101100110001101000111101000000 b
b10110011000110100011110100000001 d"
b110001101000111101000000010100 f#
b10011000110100011110100000001010 h$
b110001101000111101000000010100 j%
b110001101000111101000000010100 l&
b100111000111100001111001101110110011 .'
#121
b1010100101011110010111101010100 b
b1010010101111001011110101010000 d"
b101011110010111101010100001011 f#
b10010101111001011110101010000101 h$
b101011110010111101010100001011 j%
b101011110010111101010100001011 l&
b100111000111100001111001101111000011 .'
#122
b1011111000111010110010101011111 b
b1111100011101011001010101111101 d"
b11000111010110010101011111010101 f#
b11100011101011001010101111101010 h$
b11000111010110010101011111010101 j%
b11000111010110010101011111010101 l&
b100111000111100001111001101111010011 .'
#123
b10001010011111110110010011111010 b
b101001111111011001001111101001 d"
b10011111110110010011111010010111 f#
b1001111111011001001111101001011 h$
b10011111110110010011111010010111 j%
b10011111110110010011111010010111 l&
b100111000111100001111001101111100011 .'
#124
b1101101100110000100010000110010 b
b10110110011000010001000011001010 d"
b1100110000100010000110010100010 f#
b10110011000010001000011001010001 h$
b1100110000100010000110010100010 j%
b1100110000100010000110010100010 l&
b100111000111100001111001101111110011 .'
#125
b10010000000101011010011001011010 b
b1000000010101101001100101101001 d"
b101011010011001011010011011 f#
b10101101001100101101001101 h$
b101011010011001011010011011 j%
b101011010011001011010011011 l&
b100111000111100001111001110000000011 .'
