firmware/GBCR2_SEU_Test20220722/.Xil/Vivado-13620-13-02625/hw_ila_data_1/zip_work/waveform.vcd
$date
        2020-Nov-14 10:36:00
$end
$version
        Vivado v2018.3 (64-bit)
$end
$timescale
        1ps
$end
$scope module dut $end
$var reg 64 " Rx0_Error_bit_Count [63:0] $end
$var reg 32 b gt0_rxdata_i [31:0] $end
$var reg 64 $" Rx1_Error_bit_Count [63:0] $end
$var reg 32 d" gt1_rxdata_i [31:0] $end
$var reg 64 &# Rx2_Error_bit_Count [63:0] $end
$var reg 32 f# gt2_rxdata_i [31:0] $end
$var reg 64 ($ Rx3_Error_bit_Count [63:0] $end
$var reg 32 h$ gt3_rxdata_i [31:0] $end
$var reg 64 *% Rx4_Error_bit_Count [63:0] $end
$var reg 32 j% gt4_rxdata_i [31:0] $end
$var reg 64 ,& Rx5_Error_bit_Count [63:0] $end
$var reg 32 l& gt5_rxdata_i [31:0] $end
$var reg 64 .' Rx6_Error_bit_Count [63:0] $end
$var reg 32 n' gt6_rxdata_i [31:0] $end
$var reg 1 0( _TRIGGER $end
$var reg 1 1( _WINDOW $end
$var reg 1 2( _GAP $end
$upscope $end
$enddefinitions $end
#0
$dumpvars
b1011 "
b11001010100100010100010111111010 b
b1010 $"
b10010101001000101000101111110101 d"
b1011 &#
b11001010100100010100010111111010 f#
b1100 ($
b10110010101001000101000101111 h$
b1011 *%
b1010100100010100010111111010110 j%
b1101 ,&
b10001011001010100100010100010111 l&
b1011 .'
b101010010001010001011111101011 n'
00(
11(
02(
$end
#1
b1001001111000011011011010100010 b
b10010011110000110110110101000101 d"
b1001001111000011011011010100010 f#
b11011010010011110000110110110101 h$
b1001111000011011011010100010110 j%
b11101101001001111000011011011010 l&
b100111100001101101101010001011 n'
#2
b10000011011101100000000111011 b
b100000110111011000000001110110 d"
b10000011011101100000000111011 f#
b11110000100000110111011000000001 h$
b10000011011101100000000111011010 j%
b1111000010000011011101100000000 l&
b1000001101110110000000011101101 n'
#3
b11101001001100011000110000011110 b
b11010010011000110001100000111100 d"
b11101001001100011000110000011110 f#
b1110111010010011000110001100000 h$
b1001001100011000110000011110000 j%
b111011101001001100011000110000 l&
b10100100110001100011000001111000 n'
#4
b10011010000010111101111011001110 b
b110100000101111011110110011101 d"
b10011010000010111101111011001110 f#
b1011100110100000101111011110110 h$
b11010000010111101111011001110111 j%
b101110011010000010111101111011 l&
b1101000001011110111101100111011 n'
#5
b1110100101001010101001010001011 b
b11101001010010101010010100010111 d"
b1110100101001010101001010001011 f#
b1101011101001010010101010010100 h$
b10100101001010101001010001011100 j%
b10110101110100101001010101001010 l&
b11010010100101010100101000101110 n'
#6
b1101101000110001111110001101101 b
b11011010001100011111100011011010 d"
b1101101000110001111110001101101 f#
b10000011011010001100011111100011 h$
b1101000110001111110001101101011 j%
b11000001101101000110001111110001 l&
b10110100011000111111000110110101 n'
#7
b110000010111011111000111110000 b
b1100000101110111110001111100000 d"
b110000010111011111000111110000 f#
b111001100000101110111110001111 h$
b10000010111011111000111110000011 j%
b10011100110000010111011111000111 l&
b11000001011101111100011111000001 n'
#8
b11101011001010110010011111100111 b
b11010110010101100100111111001110 d"
b11101011001010110010011111100111 f#
b1101111010110010101100100111111 h$
b1011001010110010011111100111001 j%
b110111101011001010110010011111 l&
b10101100101011001001111110011100 n'
#9
b101011001001110010000110001101 b
b1010110010011100100001100011011 d"
b101011001001110010000110001101 f#
b11110001010110010011100100001100 h$
b1011001001110010000110001101111 j%
b1111000101011001001110010000110 l&
b10101100100111001000011000110111 n'
#10
b11110111001000011110001011011110 b
b11101110010000111100010110111100 d"
b11110111001000011110001011011110 f#
b10111101110010000111100010110 h$
b10111001000011110001011011110001 j%
b1011110111001000011110001011 l&
b11011100100001111000101101111000 n'
#11
b1010100111000101110111101000010 b
b10101001110001011101111010000101 d"
b1010100111000101110111101000010 f#
b10101010101001110001011101111010 h$
b10100111000101110111101000010111 j%
b1010101010100111000101110111101 l&
b1010011100010111011110100001011 n'
#12
b11111111001111110101100101010101 b
b11111110011111101011001010101010 d"
b11111111001111110101100101010101 f#
b11111111111110011111101011001010 h$
b11111001111110101100101010101010 j%
b11111111111111001111110101100101 l&
b11111100111111010110010101010101 n'
#13
b11011000101100100111111 b
b110110001011001001111111 d"
b11011000101100100111111 f#
b1100000000000110110001011001001 h$
b11011000101100100111111111 j%
b110000000000011011000101100100 l&
b1101100010110010011111111 n'
#14
b11000000001100001110100100001100 b
b10000000011000011101001000011000 d"
b11000000001100001110100100001100 f#
b10110110000000011000011101001000 h$
b1100001110100100001100000 j%
b1011011000000001100001110100100 l&
b110000111010010000110000 n'
#15
b1100000110110111101000010110 b
b11000001101101111010000101101 d"
b1100000110110111101000010110 f#
b1010000011000001101101111010000 h$
b1100000110110111101000010110110 j%
b10101000001100000110110111101000 l&
b110000011011011110100001011011 n'
#16
b10100110110011000000101010101010 b
b1001101100110000001010101010100 d"
b10100110110011000000101010101010 f#
b11111101001101100110000001010101 h$
b110110011000000101010101010000 j%
b11111110100110110011000000101010 l&
b10011011001100000010101010101000 n'
#17
b101001000010101100010111111111 b
b1010010000101011000101111111111 d"
b101001000010101100010111111111 f#
b1010010000101011000101111 h$
b1001000010101100010111111111101 j%
b10000000101001000010101100010111 l&
b10100100001010110001011111111110 n'
#18
b10110000101011100111010100000 b
b101100001010111001110101000000 d"
b10110000101011100111010100000 f#
b11010000101100001010111001110101 h$
b10110000101011100111010100000001 j%
b11101000010110000101011100111010 l&
b1011000010101110011101010000000 n'
#19
b10101010011010111011101110111010 b
b1010100110101110111011101110100 d"
b10101010011010111011101110111010 f#
b110101010100110101110111011101 h$
b1010011010111011101110111010000 j%
b10011010101010011010111011101110 l&
b10101001101011101110111011101000 n'
#20
b111111100100110110011001100110 b
b1111111001001101100110011001101 d"
b111111100100110110011001100110 f#
b10101001111111001001101100110011 h$
b11111100100110110011001100110101 j%
b1010100111111100100110110011001 l&
b11111110010011011001100110011010 n'
#21
b11001100001100001000010101010101 b
b10011000011000010000101010101010 d"
b11001100001100001000010101010101 f#
b11111110011000011000010000101010 h$
b1100001100001000010101010101001 j%
b11111111001100001100001000010101 l&
b110000110000100001010101010100 n'
#22
b11010110110110100101011111111 b
b110101101101101001010111111111 d"
b11010110110110100101011111111 f#
b10000000110101101101101001010111 h$
b11010110110110100101011111111110 j%
b1000000011010110110110100101011 l&
b1101011011011010010101111111111 n'
#23
b1100110000000001000111010000 b
b11001100000000010001110100000 d"
b1100110000000001000111010000 f#
b10101000011001100000000010001110 h$
b1100110000000001000111010000000 j%
b11010100001100110000000001000111 l&
b110011000000000100011101000000 n'
#24
b11010110101011000000100111110101 b
b10101101010110000001001111101010 d"
b11010110101011000000100111110101 f#
b101110101101010110000001001111 h$
b10110101011000000100111110101000 j%
b10010111010110101011000000100111 l&
b1011010101100000010011111010100 n'
#25
b10110110001111001100010001100101 b
b1101100011110011000100011001011 d"
b10110110001111001100010001100101 f#
b10100101101100011110011000100011 h$
b10110001111001100010001100101110 j%
b11010010110110001111001100010001 l&
b11011000111100110001000110010111 n'
#26
b10000011111011010111001110100 b
b100000111110110101110011101001 d"
b10000011111011010111001110100 f#
b11101000100000111110110101110011 h$
b10000011111011010111001110100101 j%
b1110100010000011111011010111001 l&
b1000001111101101011100111010010 n'
#27
b1011001001110010000110111011101 b
b10110010011100100001101110111010 d"
b1011001001110010000110111011101 f#
b10011010110010011100100001101110 h$
b11001001110010000110111011101000 j%
b11001101011001001110010000110111 l&
b1100100111001000011011101110100 n'
#28
b10011001000011110001011000110011 b
b110010000111100010110001100110 d"
b10011001000011110001011000110011 f#
b11010100110010000111100010110001 h$
b11001000011110001011000110011010 j%
b11101010011001000011110001011000 l&
b1100100001111000101100011001101 n'
#29
b11100101000101110111101001111010 b
b11001010001011101111010011110101 d"
b11100101000101110111101001111010 f#
b11010111001010001011101111010011 h$
b101000101110111101001111010100 j%
b1101011100101000101110111101001 l&
b10010100010111011110100111101010 n'
#30
b11011100110110101100101010011010 b
b10111001101101011001010100110101 d"
b11011100110110101100101010011010 f#
b100110111001101101011001010100 h$
b11100110110101100101010011010111 j%
b10010011011100110110101100101010 l&
b1110011011010110010101001101011 n'
#31
b100011101000001100100111100100 b
b1000111010000011001001111001001 d"
b100011101000001100100111100100 f#
b1100001000111010000011001001111 h$
b11101000001100100111100100110 j%
b10110000100011101000001100100111 l&
b10001110100000110010011110010011 n'
#32
b11010011111010100110100001101100 b
b10100111110101001101000011011000 d"
b11010011111010100110100001101100 f#
b10000110100111110101001101000011 h$
b10011111010100110100001101100001 j%
b11000011010011111010100110100001 l&
b1001111101010011010000110110000 n'
#33
b1100100110010111001001010110000 b
b11001001100101110010010101100001 d"
b1100100110010111001001010110000 f#
b10011011001001100101110010010101 h$
b100110010111001001010110000110 j%
b11001101100100110010111001001010 l&
b10010011001011100100101011000011 n'
#34
b10000100001010010111000001110011 b
b1000010100101110000011100110 d"
b10000100001010010111000001110011 f#
b11110100001000010100101110000011 h$
b100001010010111000001110011011 j%
b11111010000100001010010111000001 l&
b10000101001011100000111001101 n'
#35
b10101010010101100010111100111110 b
b1010100101011000101111001111101 d"
b10101010010101100010111100111110 f#
b1100101010100101011000101111001 h$
b1010010101100010111100111110100 j%
b10110010101010010101100010111100 l&
b10101001010110001011110011111010 n'
#36
b10011111100011100111010101101100 b
b111111000111001110101011011001 d"
b10011111100011100111010101101100 f#
b100111111000111001110101011 h$
b11111100011100111010101101100101 j%
b10000010011111100011100111010101 l&
b1111110001110011101010110110010 n'
#37
b1000110001111111101110111100000 b
b10001100011111111011101111000001 d"
b1000110001111111101110111100000 f#
b1110010001100011111111011101111 h$
b110001111111101110111100000100 j%
b10111001000110001111111101110111 l&
b11000111111110111011110000010 n'
#38
b11000111011111000001001100101110 b
b10001110111110000010011001011100 d"
b11000111011111000001001100101110 f#
b101110001110111110000010011001 h$
b111011111000001001100101110010 j%
b10010111000111011111000001001100 l&
b11101111100000100110010111001 n'
#39
b10111111110010011100100010100101 b
b1111111100100111001000101001011 d"
b10111111110010011100100010100101 f#
b11000101111111100100111001000101 h$
b11111110010011100100010100101110 j%
b1100010111111110010011100100010 l&
b11111111001001110010001010010111 n'
#40
b11010100000110000111100011011000 b
b10101000001100001111000110110001 d"
b11010100000110000111100011011000 f#
b1110101000001100001111000110 h$
b10100000110000111100011011000101 j%
b10000111010100000110000111100011 l&
b1010000011000011110001101100010 n'
#41
b11110111010011011011101111100001 b
b11101110100110110111011111000011 d"
b11110111010011011011101111100001 f#
b1110111101110100110110111011111 h$
b10111010011011011101111100001110 j%
b111011110111010011011011101111 l&
b11011101001101101110111110000111 n'
#42
b10010100110100100000011001001110 b
b101001101001000000110010011101 d"
b10010100110100100000011001001110 f#
b11100101001101001000000110010 h$
b10100110100100000011001001110111 j%
b1110010100110100100000011001 l&
b1010011010010000001100100111011 n'
#43
b11110011001001000010001101000011 b
b11100110010010000100011010000111 d"
b11110011001001000010001101000011 f#
b10101111100110010010000100011010 h$
b10011001001000010001101000011100 j%
b1010111110011001001000010001101 l&
b11001100100100001000110100001110 n'
#44
b10100110101000000101001110010101 b
b1001101010000001010011100101011 d"
b10100110101000000101001110010101 f#
b10011101001101010000001010011100 h$
b110101000000101001110010101111 j%
b11001110100110101000000101001110 l&
b10011010100000010100111001010111 n'
#45
b11101001001110100010110011110011 b
b11010010011101000101100111100111 d"
b11101001001110100010110011110011 f#
b10110111010010011101000101100111 h$
b1001001110100010110011110011101 j%
b11011011101001001110100010110011 l&
b10100100111010001011001111001110 n'
#46
b11010000011101011010010110110 b
b110100000111010110100101101101 d"
b11010000011101011010010110110 f#
b10000000110100000111010110100101 h$
b11010000011101011010010110110111 j%
b1000000011010000011101011010010 l&
b1101000001110101101001011011011 n'
#47
b1100101001111011000100010000 b
b11001010011110110001000100000 d"
b1100101001111011000100010000 f#
b11001000011001010011110110001000 h$
b1100101001111011000100010000000 j%
b1100100001100101001111011000100 l&
b110010100111101100010001000000 n'
#48
b10110100110011010001110011001 b
b101101001100110100011100110010 d"
b10110100110011010001110011001 f#
b10101000101101001100110100011100 h$
b10110100110011010001110011001000 j%
b11010100010110100110011010001110 l&
b1011010011001101000111001100100 n'
#49
b11011010001001010100101111110101 b
b10110100010010101001011111101010 d"
b11011010001001010100101111110101 f#
b101110110100010010101001011111 h$
b11010001001010100101111110101000 j%
b10111011010001001010100101111 l&
b1101000100101010010111111010100 n'
#50
b10110000101100001111000101000101 b
b1100001011000011110001010001011 d"
b10110000101100001111000101000101 f#
b10110101100001011000011110001010 h$
b10000101100001111000101000101110 j%
b11011010110000101100001111000101 l&
b11000010110000111100010100010111 n'
#51
b110011010100110111011110110110 b
b1100110101001101110111101101101 d"
b110011010100110111011110110110 f#
b1100110101001101110111101 h$
b10011010100110111011110110110101 j%
b10000000110011010100110111011110 l&
b11001101010011011101111011011010 n'
#52
b11010100111001000110010100000 b
b110101001110010001100101000000 d"
b11010100111001000110010100000 f#
b11010000110101001110010001100101 h$
b11010100111001000110010100000001 j%
b1101000011010100111001000110010 l&
b1101010011100100011001010000000 n'
#53
b10101100111001111000111010011010 b
b1011001110011110001110100110100 d"
b10101100111001111000111010011010 f#
b100101011001110011110001110100 h$
b1100111001111000111010011010000 j%
b10010010101100111001111000111010 l&
b10110011100111100011101001101000 n'
#54
b11100101111011011111110100100 b
b111001011110110111111101001001 d"
b11100101111011011111110100100 f#
b1000000111001011110110111111101 h$
b11100101111011011111110100100101 j%
b10100000011100101111011011111110 l&
b1110010111101101111111010010010 n'
#55
b10001111100101010000010000101000 b
b11111001010100000100001010000 d"
b10001111100101010000010000101000 f#
b10110100011111001010100000100001 h$
b1111100101010000010000101000000 j%
b1011010001111100101010000010000 l&
b111110010101000001000010100000 n'
#56
b101111001100111101001001010110 b
b1011110011001111010010010101101 d"
b101111001100111101001001010110 f#
b1110001011110011001111010010010 h$
b1111001100111101001001010110100 j%
b111000101111001100111101001001 l&
b10111100110011110100100101011010 n'
#57
b11110101011010101101010000001110 b
b11101010110101011010100000011100 d"
b11110101011010101101010000001110 f#
b111111101010110101011010100000 h$
b10101011010101101010000001110001 j%
b11111110101011010101101010000 l&
b11010101101010110101000000111000 n'
#58
b10000101111000111100011101000111 b
b1011110001111000111010001111 d"
b10000101111000111100011101000111 f#
b10111100001011110001111000111010 h$
b101111000111100011101000111111 j%
b1011110000101111000111100011101 l&
b10111100011110001110100011111 n'
#59
b10111010101011111101111111010111 b
b1110101010111111011111110101111 d"
b10111010101011111101111111010111 f#
b10110101110101010111111011111110 h$
b11010101011111101111111010111100 j%
b1011010111010101011111101111111 l&
b11101010101111110111111101011110 n'
#60
b110110111111010001001000010110 b
b1101101111110100010010000101101 d"
b110110111111010001001000010110 f#
b1010001101101111110100010010000 h$
b10110111111010001001000010110101 j%
b10101000110110111111010001001000 l&
b11011011111101000100100001011010 n'
#61
b10111000000100010101100000101010 b
b1110000001000101011000001010100 d"
b10111000000100010101100000101010 f#
b10111101110000001000101011000001 h$
b11000000100010101100000101010001 j%
b1011110111000000100010101100000 l&
b11100000010001010110000010101000 n'
#62
b10100111100010011011100110010111 b
b1001111000100110111001100101111 d"
b10100111100010011011100110010111 f#
b10010101001111000100110111001100 h$
b111100010011011100110010111101 j%
b1001010100111100010011011100110 l&
b10011110001001101110011001011110 n'
#63
b1111001101111000100011101010010 b
b11110011011110001000111010100101 d"
b1111001101111000100011101010010 f#
b11100011110011011110001000111010 h$
b11001101111000100011101010010101 j%
b1110001111001101111000100011101 l&
b11100110111100010001110101001010 n'
#64
b11111011010001011110011111011100 b
b11110110100010111100111110111000 d"
b11111011010001011110011111011100 f#
b10011111110110100010111100111110 h$
b11011010001011110011111011100011 j%
b1001111111011010001011110011111 l&
b11101101000101111001111101110001 n'
#65
b11000010000101101010110110010011 b
b10000100001011010101101100100111 d"
b11000010000101101010110110010011 f#
b10000110000100001011010101101100 h$
b10000101101010110110010011111 j%
b1000011000010000101101010110110 l&
b1000010110101011011001001111 n'
#66
b1101101001010100011110000010000 b
b11011010010101000111100000100001 d"
b1101101001010100011110000010000 f#
b1001011011010010101000111100000 h$
b1101001010100011110000010000110 j%
b100101101101001010100011110000 l&
b10110100101010001111000001000011 n'
#67
b100000010001111011110111001001 b
b1000000100011110111101110010010 d"
b100000010001111011110111001001 f#
b11000001000000100011110111101110 h$
b10001111011110111001001011 j%
b11100000100000010001111011110111 l&
b10000001000111101111011100100101 n'
#68
b10010010001001111010010100111000 b
b100100010011110100101001110000 d"
b10010010001001111010010100111000 f#
b1111100100100010011110100101001 h$
b10010001001111010010100111000001 j%
b111110010010001001111010010100 l&
b1001000100111101001010011100000 n'
#69
b110000001100011010100011001111 b
b1100000011000110101000110011111 d"
b110000001100011010100011001111 f#
b1011001100000011000110101000110 h$
b10000001100011010100011001111100 j%
b10101100110000001100011010100011 l&
b11000000110001101010001100111110 n'
#70
b101011000110111100111011101011 b
b1010110001101111001110111010110 d"
b101011000110111100111011101011 f#
b11011001010110001101111001110111 h$
b1011000110111100111011101011001 j%
b1101100101011000110111100111011 l&
b10101100011011110011101110101100 n'
#71
b100111001111000101101110011011 b
b1001110011110001011011100110110 d"
b100111001111000101101110011011 f#
b10100001001110011110001011011100 h$
b111001111000101101110011011001 j%
b11010000100111001111000101101110 l&
b10011100111100010110111001101100 n'
#72
b1010001111011011110100001110100 b
b10100011110110111101000011101000 d"
b1010001111011011110100001110100 f#
b11101010100011110110111101000011 h$
b10001111011011110100001110100001 j%
b11110101010001111011011110100001 l&
b1000111101101111010000111010000 n'
#73
b1111101111010000010101010111101 b
b11111011110100000101010101111010 d"
b1111101111010000010101010111101 f#
b10101011111011110100000101010101 h$
b11101111010000010101010111101010 j%
b11010101111101111010000010101010 l&
b11110111101000001010101011110101 n'
#74
b11101001001010101001011111110101 b
b11010010010101010010111111101010 d"
b11101001001010101001011111110101 f#
b101111010010010101010010111111 h$
b1001001010101001011111110101011 j%
b10111101001001010101001011111 l&
b10100100101010100101111111010101 n'
#75
b10101010000001111110001010000101 b
b1010100000011111100010100001011 d"
b10101010000001111110001010000101 f#
b1010101010100000011111100010100 h$
b1010000001111110001010000101111 j%
b10101010101010000001111110001010 l&
b10101000000111111000101000010111 n'
#76
b11111111101000111000111101101010 b
b11111111010001110001111011010101 d"
b11111111101000111000111101101010 f#
b11111111111010001110001111011 h$
b11111101000111000111101101010101 j%
b1111111111101000111000111101 l&
b11111110100011100011110110101010 n'
#77
b11000000001010111111111101000011 b
b10000000010101111111111010000111 d"
b11000000001010111111111101000011 f#
b10101110000000010101111111111010 h$
b1010111111111101000011111 j%
b1010111000000001010111111111101 l&
b101011111111110100001111 n'
#78
b10111100000101110100000001010101 b
b1111000001011101000000010101011 d"
b10111100000101110100000001010101 f#
b1111101111000001011101000000010 h$
b11100000101110100000001010101110 j%
b10111110111100000101110100000001 l&
b11110000010111010000000101010111 n'
#79
b100101110010101101010000101111 b
b1001011100101011010100001011111 d"
b100101110010101101010000101111 f#
b10101001001011100101011010100001 h$
b101110010101101010000101111101 j%
b1010100100101110010101101010000 l&
b10010111001010110101000010111110 n'
#80
b11000000101110011100011101010101 b
b10000001011100111000111010101010 d"
b11000000101110011100011101010101 f#
b11111110000001011100111000111010 h$
b101110011100011101010101001 j%
b1111111000000101110011100011101 l&
b10111001110001110101010100 n'
#81
b11100010101110111111111011111 b
b111000101011101111111110111111 d"
b11100010101110111111111011111 f#
b10010000111000101011101111111110 h$
b11100010101110111111111011111110 j%
b1001000011100010101110111111111 l&
b1110001010111011111111101111111 n'
#82
b101111111011101100100000010010 b
b1011111110111011001000000100100 d"
b101111111011101100100000010010 f#
b1000001011111110111011001000000 h$
b1111111011101100100000010010000 j%
b100000101111111011101100100000 l&
b10111111101110110010000001001000 n'
#83
b10010101000010011000100010001000 b
b101010000100110001000100010000 d"
b10010101000010011000100010001000 f#
b1100100101010000100110001000100 h$
b10101000010011000100010001000001 j%
b110010010101000010011000100010 l&
b1010100001001100010001000100000 n'
#84
b10000011110101000101110011001100 b
b111101010001011100110011001 d"
b10000011110101000101110011001100 f#
b1010100000111101010001011100110 h$
b11110101000101110011001100100 j%
b10101010000011110101000101110011 l&
b1111010100010111001100110010 n'
#85
b11101001110101110110101110101010 b
b11010011101011101101011101010101 d"
b11101001110101110110101110101010 f#
b1111111010011101011101101011101 h$
b1001110101110110101110101010100 j%
b10111111101001110101110110101110 l&
b10100111010111011010111010101010 n'
#86
b1010011101101100001101101111 b
b10100111011011000011011011111 d"
b1010011101101100001101101111 f#
b1000010100111011011000011011 h$
b1010011101101100001101101111111 j%
b100001010011101101100001101 l&
b101001110110110000110110111111 n'
#87
b10010101100111000000110110000001 b
b101011001110000001101100000010 d"
b10010101100111000000110110000001 f#
b11000100101011001110000001101100 h$
b10101100111000000110110000001000 j%
b1100010010101100111000000110110 l&
b1010110011100000011011000000100 n'
#88
b11000011100101111100011000011000 b
b10000111001011111000110000110001 d"
b11000011100101111100011000011000 f#
b1101110000111001011111000110000 h$
b11100101111100011000011000100 j%
b10110111000011100101111100011000 l&
b1110010111110001100001100010 n'
#89
b111101111100101001111101101101 b
b1111011111001010011111011011011 d"
b111101111100101001111101101101 f#
b1111011111001010011111011 h$
b11101111100101001111101101101110 j%
b111101111100101001111101 l&
b11110111110010100111110110110111 n'
#90
b11101001001100110011001000000 b
b111010010011001100110010000000 d"
b11101001001100110011001000000 f#
b100000111010010011001100110010 h$
b11101001001100110011001000000001 j%
b10000011101001001100110011001 l&
b1110100100110011001100100000000 n'
#91
b1001111010000010101010101000100 b
b10011110100000101010101010001000 d"
b1001111010000010101010101000100 f#
b10110010011110100000101010101010 h$
b1111010000010101010101000100000 j%
b11011001001111010000010101010101 l&
b111101000001010101010100010000 n'
#92
b1000011010101001011111111110110 b
b10000110101010010111111111101100 d"
b1000011010101001011111111110110 f#
b100010000110101010010111111111 h$
b11010101001011111111110110010 j%
b10001000011010101001011111111 l&
b1101010100101111111111011001 n'
#93
b1100101100111110001010000000100 b
b11001011001111100010100000001000 d"
b1100101100111110001010000000100 f#
b10011001011001111100010100000 h$
b101100111110001010000000100010 j%
b1001100101100111110001010000 l&
b10010110011111000101000000010001 n'
#94
b10100100101100111101101000010 b
b101001001011001111011010000100 d"
b10100100101100111101101000010 f#
b10101000101001001011001111011010 h$
b10100100101100111101101000010011 j%
b1010100010100100101100111101101 l&
b1010010010110011110110100001001 n'
#95
b11011011000000100101101000010101 b
b10110110000001001011010000101010 d"
b11011011000000100101101000010101 f#
b1011110110110000001001011010000 h$
b11011000000100101101000010101000 j%
b10101111011011000000100101101000 l&
b1101100000010010110100001010100 n'
#96
b1010000001100010000100010101011 b
b10100000011000100001000101010111 d"
b1010000001100010000100010101011 f#
b11111010100000011000100001000101 h$
b10000001100010000100010101011110 j%
b1111101010000001100010000100010 l&
b1000000110001000010001010101111 n'
#97
b1011101000110111001010011011111 b
b10111010001101110010100110111110 d"
b1011101000110111001010011011111 f#
b10010111010001101110010100110 h$
b11101000110111001010011011111010 j%
b10001001011101000110111001010011 l&
b1110100011011100101001101111101 n'
#98
b1011010111000111001100100010 b
b10110101110001110011001000100 d"
b1011010111000111001100100010 f#
b11000010110101110001110011001 h$
b1011010111000111001100100010010 j%
b10001100001011010111000111001100 l&
b101101011100011100110010001001 n'
#99
b10110101000110111111111010100011 b
b1101010001101111111110101000110 d"
b10110101000110111111111010100011 f#
b11011101101010001101111111110101 h$
b10101000110111111111010100011000 j%
b11101110110101000110111111111010 l&
b11010100011011111111101010001100 n'
#100
b1100001110111000100000010111011 b
b11000011101110001000000101110111 d"
b1100001110111000100000010111011 f#
b10110011000011101110001000000101 h$
b1110111000100000010111011101 j%
b1011001100001110111000100000010 l&
b10000111011100010000001011101110 n'
#101
b1010110111100111110010001010110 b
b10101101111001111100100010101100 d"
b1010110111100111110010001010110 f#
b1110010101101111001111100100010 h$
b10110111100111110010001010110011 j%
b10111001010110111100111110010001 l&
b1011011110011111001000101011001 n'
#102
b11001110000101101100110001101110 b
b10011100001011011001100011011100 d"
b11001110000101101100110001101110 f#
b10001110011100001011011001100011 h$
b1110000101101100110001101110010 j%
b11000111001110000101101100110001 l&
b111000010110110011000110111001 n'
#103
b11111011111010100000101011110001 b
b11110111110101000001010111100011 d"
b11111011111010100000101011110001 f#
b10111111110111110101000001010111 h$
b11011111010100000101011110001110 j%
b1011111111011111010100000101011 l&
b11101111101010000010101111000111 n'
#104
b10000010010010111010010111010111 b
b100100101110100101110101111 d"
b10000010010010111010010111010111 f#
b10110100000100100101110100101110 h$
b10010010111010010111010111111 j%
b11011010000010010010111010010111 l&
b1001001011101001011101011111 n'
#105
b101001000000010110100010110110 b
b1010010000000101101000101101101 d"
b101001000000010110100010110110 f#
b10000001010010000000101101000101 h$
b1001000000010110100010110110100 j%
b1000000101001000000010110100010 l&
b10100100000001011010001011011010 n'
#106
b10110000100001010001011010000 b
b101100001000010100010110100000 d"
b10110000100001010001011010000 f#
b101000101100001000010100010110 h$
b10110000100001010001011010000001 j%
b10100010110000100001010001011 l&
b1011000010000101000101101000000 n'
#107
b11011010011010010101101101000101 b
b10110100110100101011011010001010 d"
b11011010011010010101101101000101 f#
b10110110110100110100101011011010 h$
b11010011010010101101101000101000 j%
b1011011011010011010010101101101 l&
b1101001101001010110110100010100 n'
#108
b100100100011100000010110 b
b1001001000111000000101101 d"
b100100100011100000010110 f#
b1010000000001001001000111000000 h$
b100100100011100000010110110 j%
b101000000000100100100011100000 l&
b10010010001110000001011011 n'
#109
b10100000010000000011111110001010 b
b1000000100000000111111100010100 d"
b10100000010000000011111110001010 f#
b11101101000000100000000111111100 h$
b10000000011111110001010000 j%
b11110110100000010000000011111110 l&
b10000001000000001111111000101000 n'
#110
b1010001001000001110000111101 b
b10100010010000011100001111011 d"
b1010001001000001110000111101 f#
b11101000010100010010000011100001 h$
b1010001001000001110000111101101 j%
b1110100001010001001000001110000 l&
b101000100100000111000011110110 n'
#111
b1010101101100000100111111011101 b
b10101011011000001001111110111010 d"
b1010101101100000100111111011101 f#
b10011010101011011000001001111110 h$
b10101101100000100111111011101000 j%
b1001101010101101100000100111111 l&
b1010110110000010011111101110100 n'
#112
b10011111100000110010001100010011 b
b111111000001100100011000100110 d"
b10011111100000110010001100010011 f#
b11000100111111000001100100011000 h$
b11111100000110010001100010011010 j%
b11100010011111100000110010001100 l&
b1111110000011001000110001001101 n'
#113
b11000110001110011010001110111000 b
b10001100011100110100011101110001 d"
b11000110001110011010001110111000 f#
b111110001100011100110100011101 h$
b110001110011010001110111000100 j%
b10011111000110001110011010001110 l&
b11000111001101000111011100010 n'
#114
b10011111011111110100101111100111 b
b111110111111101001011111001111 d"
b10011111011111110100101111100111 f#
b1101100111110111111101001011111 h$
b11111011111110100101111100111110 j%
b110110011111011111110100101111 l&
b1111101111111010010111110011111 n'
#115
b10110010010000101000101001101 b
b101100100100001010001010011011 d"
b10110010010000101000101001101 f#
b10010000101100100100001010001010 h$
b10110010010000101000101001101100 j%
b11001000010110010010000101000101 l&
b1011001001000010100010100110110 n'
#116
b101010010000001010110110110010 b
b1010100100000010101101101100100 d"
b101010010000001010110110110010 f#
b10001010100100000010101101101 h$
b1010010000001010110110110010000 j%
b1000101010010000001010110110 l&
b10101001000000101011011011001000 n'
#117
b110111100001000101110000000010 b
b1101111000010001011100000000100 d"
b110111100001000101110000000010 f#
b1001101111000010001011100000 h$
b10111100001000101110000000010001 j%
b100110111100001000101110000 l&
b11011110000100010111000000001000 n'
#118
b10001000101110100110101111000001 b
b10001011101001101011110000010 d"
b10001000101110100110101111000001 f#
b11100100010001011101001101011110 h$
b1000101110100110101111000001001 j%
b1110010001000101110100110101111 l&
b100010111010011010111100000100 n'
#119
b10001100110101101001001101011100 b
b11001101011010010011010111001 d"
b10001100110101101001001101011100 f#
b11011100011001101011010010011010 h$
b1100110101101001001101011100100 j%
b1101110001100110101101001001101 l&
b110011010110100100110101110010 n'
#120
b1111110101001100010000010011011 b
b11111101010011000100000100110111 d"
b1111110101001100010000010011011 f#
b100011111101010011000100000100 h$
b11110101001100010000010011011100 j%
b10001111110101001100010000010 l&
b11111010100110001000001001101110 n'
#121
b1111000101110010111001001000100 b
b11110001011100101110010010001000 d"
b1111000101110010111001001000100 f#
b110011110001011100101110010010 h$
b11000101110010111001001000100011 j%
b11001111000101110010111001001 l&
b11100010111001011100100100010001 n'
#122
b1011011110101110010111000000110 b
b10110111101011100101110000001100 d"
b1011011110101110010111000000110 f#
b11010110111101011100101110000 h$
b11011110101110010111000000110011 j%
b10001101011011110101110010111000 l&
b1101111010111001011100000011001 n'
#123
b10011000010101101110010111100011 b
b110000101011011100101111000110 d"
b10011000010101101110010111100011 f#
b1111100110000101011011100101111 h$
b11000010101101110010111100011010 j%
b10111110011000010101101110010111 l&
b1100001010110111001011110001101 n'
#124
b110101101011100001110010101111 b
b1101011010111000011100101011111 d"
b110101101011100001110010101111 f#
b11101001101011010111000011100101 h$
b10101101011100001110010101111100 j%
b1110100110101101011100001110010 l&
b11010110101110000111001010111110 n'
#125
b1001001100011011110111110011101 b
b10010011000110111101111100111010 d"
b1001001100011011110111110011101 f#
b10111010010011000110111101111100 h$
b1001100011011110111110011101001 j%
b11011101001001100011011110111110 l&
b100110001101111011111001110100 n'
#126
b11010000010111100010100100110111 b
b10100000101111000101001001101110 d"
b11010000010111100010100100110111 f#
b1000110100000101111000101001001 h$
b10000010111100010100100110111010 j%
b100011010000010111100010100100 l&
b1000001011110001010010011011101 n'
#127
b11100101001010101111011000001000 b
b11001010010101011110110000010001 d"
b11100101001010101111011000001000 f#
b100111001010010101011110110000 h$
b101001010101111011000001000110 j%
b10010011100101001010101111011000 l&
b10010100101010111101100000100011 n'
